{"queryTime":"0 Seconds","totalCount":1240,"pageNumber":1,"perPage":200,"pageCount":200,"data":[{"id":387210,"name":"Den Magaphses","duration":26},{"id":337801,"name":"Stella Kalatzi","duration":29},{"id":37917,"name":"Oti pio omorfo","duration":28},{"id":1145068,"name":"Yiasou Maria","duration":29},{"id":1239639,"name":"Xerw Poia Eimai","duration":29},{"id":337715,"name":"Kalokairi","duration":29},{"id":86127,"name":"Parafora","duration":30},{"id":349647,"name":"Esena Mono Ringtone","duration":24},{"id":1109220,"name":"Shkwse to thlefono","duration":4},{"id":1143562,"name":"poutana","duration":17},{"id":334839,"name":"Ta Xalasame","duration":27},{"id":1191460,"name":"Ksipna Re","duration":29},{"id":1322544,"name":"Greek Club","duration":19},{"id":1364085,"name":"Se Thumamai Pou Na P","duration":29},{"id":921618,"name":"Diafimisi Wind Eeno1","duration":3},{"id":1195971,"name":"Ante Geia","duration":29},{"id":1139537,"name":"STAN - Xtypa","duration":29},{"id":934121,"name":"Angel","duration":29},{"id":386783,"name":"Karafoths New","duration":29},{"id":386786,"name":"Sirtaki Dance Greek","duration":27},{"id":1211413,"name":"H Agapi Mou","duration":29},{"id":349868,"name":"Sirusho Erotas","duration":27},{"id":1204865,"name":"Feugw Apo Sena","duration":29},{"id":387661,"name":"To Poulaw To Spiti","duration":28},{"id":1323074,"name":"Se Erwteuthka","duration":29},{"id":1143640,"name":"Kiamos De Methaw","duration":20},{"id":1337034,"name":"Greek Beat","duration":29},{"id":1273818,"name":"Poio Dynata","duration":29},{"id":334481,"name":"Systima","duration":28},{"id":1225498,"name":"Ta Oneira Mas","duration":29},{"id":1220466,"name":"Erotiko 1","duration":29},{"id":1216613,"name":"Pou Na Brw To Korits","duration":24},{"id":1025197,"name":"Greek wine","duration":26},{"id":970997,"name":"Kafta Greek","duration":29},{"id":1205531,"name":"Koko","duration":26},{"id":1047625,"name":"papazoglou voudas gr","duration":24},{"id":332687,"name":"S77 Fila Me","duration":24},{"id":1210691,"name":"Siga Mn Klapsw","duration":29},{"id":109725,"name":"Flakes - Swinton","duration":23},{"id":1225566,"name":"Ama De Se Do","duration":29},{"id":86522,"name":"Mia nihta mono","duration":30},{"id":1198631,"name":"Plaka Kaneis","duration":29},{"id":334553,"name":"Zamanfou","duration":29},{"id":1088320,"name":"Skotwse Me - Giannou","duration":21},{"id":1008308,"name":"New Turkish Mix","duration":13},{"id":1102395,"name":"makari na mporousa","duration":29},{"id":1267646,"name":"Mou Paei Sarbel","duration":29},{"id":288062,"name":"Sugnwmi Pa Ta La8i","duration":26},{"id":332603,"name":"Erwta Me Tn Agripnia","duration":29},{"id":1164768,"name":"Didimoteixo Blues 2","duration":28},{"id":246537,"name":"Greek Song","duration":14},{"id":382937,"name":"Rock Intro","duration":16},{"id":1145312,"name":"Papoutsa Palia","duration":29},{"id":1143647,"name":"Mazw Opou Koitakseis","duration":17},{"id":1212124,"name":"Parta Ola Dika Sou","duration":29},{"id":1092090,"name":"greek happy b day","duration":29},{"id":289927,"name":"Patricks Laugh","duration":11},{"id":978699,"name":"Triantafullo Mou","duration":27},{"id":1311700,"name":"Shma Kampana","duration":29},{"id":1144582,"name":"Poulaki Xeno","duration":29},{"id":1267009,"name":"Omorfi- Giasemis","duration":29},{"id":334165,"name":"Put The Kot Down","duration":18},{"id":387239,"name":"Apo Kanara","duration":29},{"id":1193045,"name":"Dos Mou Remix Greek","duration":24},{"id":36674,"name":"Erotas Ksafnikos- sirusho","duration":18},{"id":1145122,"name":"greek dance","duration":29},{"id":1222851,"name":"Ginekes-vale Fadasia","duration":26},{"id":778051,"name":"Mega Zorba Dance","duration":29},{"id":1092237,"name":"Thelw","duration":28},{"id":919635,"name":"Dynamic Beat","duration":29},{"id":333724,"name":"Ola Gyrw Sou Gurizou","duration":29},{"id":1194955,"name":"Eimaste Mazi","duration":22},{"id":1295860,"name":"San Ton Klefti 3","duration":29},{"id":386658,"name":"Euxaristw - Petrelhs","duration":24},{"id":1260762,"name":"Gia Sou Ellada","duration":24},{"id":1338257,"name":"Eksomologhsh","duration":29},{"id":1291668,"name":"Tha Me Zitas","duration":29},{"id":1147353,"name":"Zimiz","duration":29},{"id":1055348,"name":"Spirto","duration":28},{"id":1222929,"name":"By Secrets77","duration":29},{"id":335075,"name":"H Agaph Mou Rock","duration":29},{"id":1201664,"name":"De Ginete","duration":29},{"id":220691,"name":"Sokerde","duration":29},{"id":919618,"name":"Dreamy Dance","duration":29},{"id":387534,"name":"Eisai Mia Fwtia","duration":28},{"id":1185587,"name":"Esena Mono Remix","duration":16},{"id":1086186,"name":"trelos mazwnakhs","duration":18},{"id":1285809,"name":"Nomiza- Varthakouris","duration":28},{"id":332835,"name":"Oneira K Oneira","duration":26},{"id":335237,"name":"Ftanei Nasai Ekei","duration":29},{"id":316883,"name":"Zilevo 2","duration":14},{"id":290520,"name":"Efaga Th Gh","duration":22},{"id":1113433,"name":"to xo se kako","duration":17},{"id":1194956,"name":"Mc Yinka","duration":29},{"id":1315921,"name":"Kiamos","duration":25},{"id":244373,"name":"Secret Love 3","duration":29},{"id":189566,"name":"Aggele Mou","duration":27},{"id":1144979,"name":"Ksehaseme","duration":29},{"id":37119,"name":"RINGTONE [Greek]: I Strayed For You","duration":30},{"id":1218979,"name":"S Afhno","duration":27},{"id":1206957,"name":"Ax Aggele Mou","duration":29},{"id":1236193,"name":"Makropoulos","duration":29},{"id":959822,"name":"Greek Mantas","duration":29},{"id":1207583,"name":"Den Exw Polla","duration":25},{"id":1176872,"name":"Malaka","duration":11},{"id":1141449,"name":"Karras Astrofeggia","duration":28},{"id":334571,"name":"Rologiou I Deiktes","duration":29},{"id":59360,"name":"RINGTONE [Grk]: Now I Can Hope","duration":30},{"id":1202282,"name":"Oneiro Alithinoremix","duration":29},{"id":1143646,"name":"Mazw Sta Oneira Sou","duration":15},{"id":86294,"name":"RINGTONE [Greek]: Told You A 1,000 Times","duration":30},{"id":1101972,"name":"exw esena","duration":15},{"id":1247596,"name":"Den Me Tromazei","duration":29},{"id":1143468,"name":"Argyros Mia nyxta","duration":29},{"id":333466,"name":"8aumata","duration":28},{"id":227855,"name":"Greek Song","duration":22},{"id":1208325,"name":"Koletsa","duration":27},{"id":1266636,"name":"White Dragon-niwse M","duration":28},{"id":1133664,"name":"Athina Thessalonikh","duration":29},{"id":1182623,"name":"Kouventa Sth Kouvent","duration":29},{"id":370016,"name":"Kratame","duration":29},{"id":332776,"name":"Den Me Agapaei","duration":24},{"id":166169,"name":"Secret Love","duration":29},{"id":197684,"name":"O Efivos Megalose","duration":15},{"id":1144357,"name":"Me Lene Giorgo","duration":29},{"id":1312164,"name":"Super Hit 2009","duration":29},{"id":1191455,"name":"Efuga Ksefuga","duration":24},{"id":1342995,"name":"Greek Sms","duration":14},{"id":1133554,"name":"I like the way","duration":29},{"id":1212276,"name":"Parta Ola Dika Sou","duration":29},{"id":1144486,"name":"Voitha Panagia 2","duration":29},{"id":335437,"name":"Mix","duration":14},{"id":1143840,"name":"Kostopoulos YgeiaMou","duration":26},{"id":1187885,"name":"Se Agapao Me  Akous","duration":29},{"id":1251208,"name":"Kymata","duration":29},{"id":387603,"name":"Ai Sixtir","duration":29},{"id":296092,"name":"Etodaso","duration":25},{"id":959731,"name":"Mono Me Esena Agkali","duration":29},{"id":1143728,"name":"Vertis vradiazei","duration":22},{"id":335572,"name":"Xoris Gyrismo","duration":29},{"id":1273140,"name":"Yparxei Zwi","duration":29},{"id":335473,"name":"Se Xilia Xronia","duration":29},{"id":335504,"name":"Na Mh Se Gnoriza","duration":29},{"id":1250411,"name":"Hawaii","duration":25},{"id":334108,"name":"To Kalokairi Ayto","duration":24},{"id":1133659,"name":"Filaxto","duration":29},{"id":337737,"name":"Tha Vreksei","duration":29},{"id":1247594,"name":"Dn Eimai Tou Pneumat","duration":29},{"id":1194337,"name":"Me Rithmo","duration":29},{"id":1179174,"name":"Greek Track","duration":29},{"id":1305908,"name":"Liza Banana","duration":18},{"id":335293,"name":"Kakomathimeno","duration":29},{"id":293689,"name":"Ooooooooooooooooooo","duration":1},{"id":917645,"name":"Vgal Tin Exo","duration":21},{"id":1351190,"name":"Greek Dance","duration":17},{"id":1144365,"name":"Stavrodromi","duration":29},{"id":37471,"name":"Exo esena","duration":28},{"id":387393,"name":"Aisthimata","duration":29},{"id":35496,"name":"greek dance","duration":18},{"id":1091036,"name":"Greek Music","duration":29},{"id":1207089,"name":"Amarties","duration":29},{"id":47671,"name":"Pentozali","duration":30},{"id":1282576,"name":"O Kokoras","duration":29},{"id":1115330,"name":"2komatia","duration":22},{"id":1247143,"name":"Ola Einai Edw","duration":29},{"id":1084702,"name":"Mporei","duration":29},{"id":1186919,"name":"Giorgos Sampanis","duration":28},{"id":333709,"name":"Ta Kormia","duration":29},{"id":1168998,"name":"Running in the 9yees","duration":14},{"id":1217896,"name":"Greek 911","duration":29},{"id":1182622,"name":"Kane Ton Xeimwna Kal","duration":29},{"id":335518,"name":"Egklhma Kaneis","duration":23},{"id":1220803,"name":"Liwma Instrumental","duration":20},{"id":1224276,"name":"Mi Rwtas To Giati","duration":24},{"id":857091,"name":"Maya","duration":21},{"id":1149023,"name":"Exei na kanei","duration":29},{"id":1327574,"name":"Parizaki Ufantis","duration":29},{"id":1291669,"name":"Me Ksurafi","duration":29},{"id":100987,"name":"smouts","duration":1},{"id":965882,"name":"Pantelidis","duration":19},{"id":332854,"name":"Ntoueto","duration":29},{"id":1195970,"name":"To Sagapo","duration":29},{"id":334945,"name":"Pio Kseni","duration":29},{"id":182837,"name":"Grousouzi","duration":13},{"id":35318,"name":"Mia apo ta idia","duration":30},{"id":1330739,"name":"Pio Kala","duration":28},{"id":815982,"name":"Bass Greek","duration":20},{"id":917648,"name":"Pare Mou Pipa","duration":28},{"id":1364106,"name":"Tha Mou Perasei","duration":29},{"id":1326739,"name":"Rous - Eksaireseis","duration":29},{"id":1230876,"name":"Gia Sena Mono","duration":27},{"id":277094,"name":"Where Are You","duration":5},{"id":15061,"name":"Pes tou","duration":29},{"id":1297378,"name":"Vendeta","duration":29},{"id":782006,"name":"Kai Twra Oi Dyo Mas","duration":29},{"id":1222761,"name":"Kommatia Ta Filia","duration":29},{"id":335314,"name":"Ginese Erotas","duration":29},{"id":43800,"name":"Thelo","duration":28},{"id":218958,"name":"Greek Music","duration":17},{"id":1151187,"name":"otan me koitas","duration":29}]}