{"queryTime":"0 Seconds","totalCount":744,"pageNumber":1,"perPage":200,"pageCount":200,"data":[{"id":1297674,"name":"Funky Tone","duration":11},{"id":815657,"name":"Knock Sms","duration":3},{"id":889673,"name":"Funky Sms","duration":1},{"id":1229559,"name":"Baby Cosmopolitan","duration":22},{"id":1018939,"name":"Funky House Ringtone","duration":29},{"id":1313720,"name":"Do U Wanna Get Funky","duration":28},{"id":1301563,"name":"Nokia Old","duration":29},{"id":1358536,"name":"Funky Transformer","duration":27},{"id":334566,"name":"Apache","duration":28},{"id":935017,"name":"Funky House People","duration":29},{"id":1269192,"name":"Funky Msg","duration":6},{"id":367914,"name":"Komeng","duration":7},{"id":1023272,"name":"Savant Kali 47","duration":24},{"id":1023275,"name":"Spaced Out-Flvor","duration":17},{"id":926316,"name":"Funky Beats","duration":11},{"id":315226,"name":"Funky Ringtone","duration":27},{"id":1149904,"name":"Slip N Slide","duration":21},{"id":1257557,"name":"Aizat","duration":29},{"id":1361678,"name":"Nokia 90","duration":23},{"id":1044775,"name":"Funky Towel","duration":14},{"id":1226240,"name":"Trance Dhamaal","duration":19},{"id":274757,"name":"Funky Beat","duration":17},{"id":219844,"name":"Ultimate House Mix 1","duration":29},{"id":1175193,"name":"Virus Found","duration":5},{"id":991369,"name":"Funky Vodka","duration":29},{"id":180375,"name":"Silence Funny Tone","duration":6},{"id":323889,"name":"Punani","duration":27},{"id":355978,"name":"Funky Ringtone","duration":27},{"id":85669,"name":"Pamietaj","duration":29},{"id":1010683,"name":"Funky Notification","duration":1},{"id":1100006,"name":"Funky Horns","duration":17},{"id":1354033,"name":"A Little Too Funky","duration":14},{"id":775520,"name":"Nokia Funky Sms","duration":10},{"id":1311911,"name":"Funky Polak","duration":29},{"id":1188976,"name":"Ferrari","duration":13},{"id":1343506,"name":"Vip Message","duration":9},{"id":1218932,"name":"Strange Ringer","duration":4},{"id":370604,"name":"Funky Tranformer","duration":27},{"id":1332450,"name":"Nokia Scratch","duration":19},{"id":290211,"name":"Attendence At School","duration":16},{"id":1029591,"name":"Mario Funky","duration":12},{"id":1358323,"name":"Fat Break Beat","duration":28},{"id":1213034,"name":"Sms Alert","duration":1},{"id":334374,"name":"Arabic Music","duration":29},{"id":1316133,"name":"Todays Tune","duration":20},{"id":296582,"name":"Priddyboy","duration":17},{"id":251569,"name":"Monkey Voice Tone","duration":3},{"id":1016823,"name":"Punjabi Jingle","duration":29},{"id":1291219,"name":"Funky Worm","duration":22},{"id":881032,"name":"Class Ria","duration":27},{"id":1240308,"name":"My Funky Tune","duration":29},{"id":1278093,"name":"Tenu Le","duration":27},{"id":102880,"name":"Techno Beat","duration":28},{"id":1253054,"name":"Seguimos Activaos","duration":17},{"id":103216,"name":"Funk Alternative","duration":21},{"id":274233,"name":"Cool And Funky","duration":29},{"id":350115,"name":"Funky Djs","duration":28},{"id":881028,"name":"Crazy Dance","duration":29},{"id":302028,"name":"Pepli Recession Dyan","duration":21},{"id":930194,"name":"Bharatmatakijai","duration":13},{"id":1317525,"name":"Funky Frog In Spain","duration":7},{"id":272191,"name":"Groove","duration":29},{"id":1288529,"name":"So Fly","duration":29},{"id":205829,"name":"Anwser The God Dam","duration":12},{"id":1362614,"name":"Recieved","duration":3},{"id":876903,"name":"Funky","duration":29},{"id":1283393,"name":"Funkyremix","duration":21},{"id":1273766,"name":"Power Beat500","duration":15},{"id":1013876,"name":"Funky Beat","duration":25},{"id":1192359,"name":"Funky Chipmunks","duration":14},{"id":89726,"name":"Desire","duration":29},{"id":1290417,"name":"Woman Laughing Funky","duration":3},{"id":1319535,"name":"Mobile Soldier","duration":9},{"id":900270,"name":"Sharp Ringtone","duration":28},{"id":231136,"name":"Something Funky","duration":29},{"id":1180971,"name":"Funny Evil Alien","duration":13},{"id":1134710,"name":"Funkytown Message","duration":3},{"id":252251,"name":"Nokia Funky House","duration":29},{"id":788875,"name":"Fear Of Tigers","duration":22},{"id":287070,"name":"Funky Town","duration":23},{"id":85127,"name":"Funky Dude","duration":30},{"id":1153870,"name":"Stereokumonomu","duration":30},{"id":286453,"name":"Funky Town","duration":22},{"id":902733,"name":"Jaan Pehechaan Ho","duration":29},{"id":840766,"name":"Perfect Tone","duration":8},{"id":48340,"name":"Funky Sound","duration":26},{"id":881035,"name":"Effect 2012","duration":20},{"id":785052,"name":"Funky Nokia","duration":12},{"id":1016825,"name":"Choir Theme Lovely","duration":29},{"id":904436,"name":"Yeah","duration":28},{"id":967223,"name":"8bit Coal Mine","duration":27},{"id":968386,"name":"Dur Dur Dur","duration":7},{"id":210162,"name":"Nice Voice","duration":29},{"id":187148,"name":"Rang Kala","duration":27},{"id":323225,"name":"Whine Down Low 3","duration":29},{"id":1229968,"name":"Crz Funky Partysquad","duration":27},{"id":1278447,"name":"Techno Trance Dance","duration":26},{"id":1361647,"name":"Nokia Mix 2","duration":19},{"id":1224465,"name":"Chill","duration":3},{"id":1055487,"name":"trumpets","duration":19},{"id":793370,"name":"Aisha Best","duration":28},{"id":777288,"name":"Funky Effects","duration":25},{"id":1278994,"name":"Don Funky Mix","duration":29},{"id":2705,"name":"Rap","duration":22},{"id":1318868,"name":"Recoilex","duration":14},{"id":1042905,"name":"Funky Caller Tone","duration":29},{"id":1273905,"name":"Funky Worm","duration":26},{"id":813489,"name":"Funky Old","duration":17},{"id":872163,"name":"Is Just Funky","duration":13},{"id":1255789,"name":"Guitar And Trumpet M","duration":21},{"id":886099,"name":"Funky Transition","duration":5},{"id":1342814,"name":"Alvin  The Chipmunk","duration":26},{"id":48515,"name":"Funky Beat","duration":17},{"id":1266921,"name":"Stai","duration":29},{"id":1249968,"name":"Kambakkht-ishq New","duration":28},{"id":1293490,"name":"Hamsterdance","duration":15},{"id":1274097,"name":"Winter Sonata Funky","duration":29},{"id":290690,"name":"Crazy Funky Hat","duration":9},{"id":1336102,"name":"Adamek Wychodzi Ring","duration":29},{"id":836154,"name":"Mr Bean Tone","duration":13},{"id":1184774,"name":"Funky Hiphopper","duration":28},{"id":980275,"name":"Dunderpatrullen","duration":29},{"id":1292576,"name":"Electrabeat01","duration":10},{"id":1011674,"name":"Melody To Funkytown","duration":1},{"id":1227173,"name":"Funky Divas","duration":28},{"id":902064,"name":"Color On The Wall","duration":17},{"id":939827,"name":"Funky Chicken","duration":13},{"id":233799,"name":"Esha Creations","duration":29},{"id":1364967,"name":"Are You Gonna Bang","duration":14},{"id":927858,"name":"I Will Do The Talkin","duration":13},{"id":24029,"name":"CD 2- Dinner","duration":30},{"id":1046779,"name":"Castlevania remix","duration":29},{"id":1312083,"name":"Play Funky Music","duration":28},{"id":141143,"name":"The Funkiest","duration":29},{"id":802772,"name":"Dj Msg","duration":8},{"id":941316,"name":"Iphone Funky","duration":10},{"id":206859,"name":"Retro Dance Tone","duration":16},{"id":1297656,"name":"Funky Tone","duration":10},{"id":198355,"name":"Smsfunkytownmisio","duration":29},{"id":1298271,"name":"Too Funky In Here","duration":14},{"id":1137358,"name":"Ferreck Dawn - Mad L","duration":29},{"id":1240697,"name":"Funky  News","duration":29},{"id":1281267,"name":"Funky Style","duration":17},{"id":134392,"name":"Funky Wop Wop Long","duration":21},{"id":791408,"name":"Hiphop Guitar","duration":21},{"id":172076,"name":"Telephone Joker Tone","duration":13},{"id":837316,"name":"Funky Pidgeoncom","duration":2},{"id":914432,"name":"Tu Ru Ru","duration":14},{"id":189979,"name":"Funkymusicvol1","duration":14},{"id":35769,"name":"Jos cu te voleti","duration":30},{"id":179557,"name":"Mi Maestro","duration":29},{"id":1238327,"name":"Urgent Call","duration":9},{"id":883911,"name":"Cuando Levanto","duration":28},{"id":14112,"name":"Funky Town","duration":27},{"id":1131641,"name":"V Neck Sweater","duration":19},{"id":964145,"name":"Asus P526 Funky","duration":23},{"id":844404,"name":"Funny Spring Tone","duration":6},{"id":1201668,"name":"My Body","duration":29},{"id":1362190,"name":"Italiano Polizia","duration":7},{"id":1363414,"name":"Police Mix","duration":24},{"id":810247,"name":"R D B New Song","duration":18},{"id":323194,"name":"Funk Jam Tone","duration":8},{"id":1270984,"name":"Its Funky Enough","duration":12},{"id":1273319,"name":"Funky Angel","duration":27},{"id":1111985,"name":"deadpool soundtrack","duration":29},{"id":836181,"name":"New 3d Bomb Tone","duration":10},{"id":1048279,"name":"Funkys Fugue","duration":27},{"id":1285014,"name":"Funky Ring","duration":15},{"id":212349,"name":"Nice Funky Ringtone","duration":29},{"id":1045482,"name":"where the funk","duration":29},{"id":1348069,"name":"Funky Music","duration":25},{"id":1263729,"name":"Funky Messenger","duration":11},{"id":238722,"name":"Way I Are Remix","duration":29},{"id":311938,"name":"Magic Sms","duration":3},{"id":1356195,"name":"Funky Msg Tone","duration":4},{"id":142429,"name":"Funky Theme","duration":29},{"id":1226974,"name":"Papaya Song","duration":29},{"id":1236521,"name":"Yarabi El Sela","duration":28},{"id":1134712,"name":"Funkytown Ringtone","duration":15},{"id":945415,"name":"Funky Ringer","duration":4},{"id":247754,"name":"Alicetea","duration":19},{"id":1020291,"name":"Marios 12 Bar Blues","duration":24},{"id":1167954,"name":"OnePlus - Funky","duration":9},{"id":844086,"name":"Cute Sms 2011","duration":1},{"id":1361668,"name":"Nokia Defect Tone","duration":4},{"id":49206,"name":"Message Ala Re","duration":10},{"id":37197,"name":"Aasman Kho Janey do devil mix","duration":27},{"id":1362621,"name":"Violin Music","duration":28},{"id":1361621,"name":"Nice Message","duration":4},{"id":1266923,"name":"Stai2","duration":14},{"id":1346875,"name":"Funky Music","duration":25},{"id":1307893,"name":"Mexican Jump Beans","duration":4},{"id":152328,"name":"Funky Drummer","duration":12},{"id":201316,"name":"Hot N Cool 2","duration":23},{"id":814456,"name":"Lp Bhangra Mix 2010","duration":29},{"id":1365245,"name":"Funky Tone","duration":5},{"id":1184877,"name":"Funky Town","duration":26},{"id":1273524,"name":"Dale Hiphop","duration":29},{"id":257289,"name":"Angry Birds Funky","duration":28},{"id":280474,"name":"New Funky Nokia","duration":19}]}