{"queryTime":"0 Seconds","totalCount":383,"pageNumber":1,"perPage":200,"pageCount":200,"data":[{"id":1322800,"name":"Dj Groove - French","duration":21},{"id":1270917,"name":"French Toast","duration":6},{"id":1212785,"name":"Ratatouille 4","duration":14},{"id":1335050,"name":"New Dj Effect 2010","duration":29},{"id":776579,"name":"French Song","duration":7},{"id":1204355,"name":"Do You Speak Music","duration":22},{"id":65536,"name":"B.U.G. Without words","duration":30},{"id":1173620,"name":"Elfe Qui Chante","duration":12},{"id":22705,"name":"A Man and a Woman","duration":23},{"id":944627,"name":"Bum Twitcher","duration":9},{"id":1009272,"name":"Pardon My French","duration":3},{"id":1289922,"name":"Calegero","duration":13},{"id":1169129,"name":"Moshiya - So Good","duration":30},{"id":1250979,"name":"Closer Than Most","duration":15},{"id":149113,"name":"French Love","duration":26},{"id":966100,"name":"Lamour Et La Libert","duration":29},{"id":944556,"name":"French Kiss","duration":29},{"id":1311820,"name":"Mr Hulots Holidays","duration":29},{"id":1212797,"name":"Le Festin 2","duration":13},{"id":1362793,"name":"A French Phone Call","duration":9},{"id":60606,"name":"A Man and a Woman","duration":23},{"id":1182263,"name":"Lifting","duration":25},{"id":1255366,"name":"France Old Phone","duration":10},{"id":1018658,"name":"French Police Siren","duration":17},{"id":1164469,"name":"Eos yooj","duration":30},{"id":1016084,"name":"Colargol 2","duration":10},{"id":1293335,"name":"Keny Arkana","duration":29},{"id":247850,"name":"Bless Me Everytime","duration":29},{"id":1360536,"name":"Brasco","duration":29},{"id":877014,"name":"French Ringtone","duration":25},{"id":1179116,"name":"Frenchman","duration":18},{"id":1169901,"name":"French horn","duration":4},{"id":873363,"name":"Rose Rouge Remix","duration":23},{"id":1301266,"name":"Nique Sa Mere","duration":10},{"id":1015992,"name":"Antenne 2 Pub","duration":3},{"id":1093524,"name":"French Tables","duration":10},{"id":141924,"name":"Bonjour Sir","duration":7},{"id":842595,"name":"Sms Ooh La La","duration":1},{"id":897711,"name":"Musketeers March","duration":23},{"id":288998,"name":"Lamour La Premiere","duration":24},{"id":969491,"name":"Sickest Squad - Fk","duration":29},{"id":1339210,"name":"French Mix","duration":29},{"id":1202856,"name":"Ma Tabiere","duration":29},{"id":1000521,"name":"French Sms","duration":1},{"id":1169718,"name":"Tchikiboum 80","duration":21},{"id":152675,"name":"French You Have A Me","duration":5},{"id":1354842,"name":"I Like That","duration":30},{"id":1019055,"name":"The French Chef","duration":10},{"id":1252498,"name":"Bambararambam Alizee","duration":15},{"id":334244,"name":"Aline","duration":26},{"id":315561,"name":"French Kiss","duration":29},{"id":1228061,"name":"Brice De Nice","duration":18},{"id":1263864,"name":"Frenchmontana Over","duration":29},{"id":310168,"name":"Message For You","duration":3},{"id":1016712,"name":"Les Minions Pipon","duration":6},{"id":85299,"name":"i love dance","duration":28},{"id":957688,"name":"Frenchcore Addict","duration":29},{"id":256784,"name":"French Riverry","duration":17},{"id":1290739,"name":"French Cancan","duration":19},{"id":293533,"name":"Merry Xmas French","duration":18},{"id":1245987,"name":"Hiji Suru Style","duration":29},{"id":325031,"name":"Romantic Allo","duration":16},{"id":1085310,"name":"French Piano","duration":29},{"id":1235363,"name":"Bar Smokin","duration":29},{"id":878768,"name":"Maffia","duration":29},{"id":896346,"name":"French Sms","duration":3},{"id":1180779,"name":"Nikky French","duration":20},{"id":1198653,"name":"Somewhereoutthere Fr","duration":25},{"id":1357206,"name":"C Est Le Facteur","duration":2},{"id":1097665,"name":"Maliblue Darius","duration":29},{"id":1159147,"name":"Unforgettable","duration":29},{"id":1278799,"name":"Sms-french","duration":5},{"id":1162909,"name":"Bigouden rap","duration":26},{"id":1039577,"name":"The Wolf Appears","duration":29},{"id":1321955,"name":"Fmontana-groupie","duration":23},{"id":946038,"name":"Love Song","duration":3},{"id":1014609,"name":"The French Mistake","duration":18},{"id":869140,"name":"Mw3 Gign Headquarter","duration":2},{"id":1028816,"name":"French Affair","duration":29},{"id":1262645,"name":"French","duration":29},{"id":1294682,"name":"French Text Message","duration":4},{"id":197002,"name":"Je Suis Jaloux","duration":27},{"id":1098545,"name":"Athena Libert","duration":2},{"id":369584,"name":"Nananana Remix","duration":14},{"id":1211631,"name":"Hey Patron","duration":29},{"id":363804,"name":"French Sms","duration":5},{"id":1095378,"name":"french","duration":29},{"id":1207252,"name":"Le Eskadrie","duration":27},{"id":1176757,"name":"Myson1","duration":6},{"id":348682,"name":"Nice Ringtone","duration":29},{"id":256583,"name":"Les Cites Or","duration":17},{"id":1055245,"name":"French Electro","duration":15},{"id":1117311,"name":"pas le temps de","duration":3},{"id":1176134,"name":"Tout Nu Sur La Plage","duration":16},{"id":1302556,"name":"Beautiful Voice","duration":29},{"id":1345506,"name":"A French Phonecall","duration":9},{"id":1023152,"name":"French Kiss","duration":29},{"id":310692,"name":"French Sms","duration":3},{"id":1341864,"name":"All About My Money","duration":28},{"id":244544,"name":"In Alarm","duration":22},{"id":167599,"name":"French Song","duration":20},{"id":1016713,"name":"Minion Pipon","duration":3},{"id":1148347,"name":"Rap francais russe","duration":27},{"id":1360531,"name":"Cri De","duration":29},{"id":185899,"name":"English Pigdogs","duration":4},{"id":1052715,"name":"French accordion","duration":29},{"id":882733,"name":"French Montana","duration":29},{"id":1365216,"name":"Multiplex","duration":1},{"id":1211520,"name":"New French Kiss","duration":28},{"id":946013,"name":"Pawan Kalayan Jonny","duration":7},{"id":830498,"name":"A French Phonecall","duration":9},{"id":855733,"name":"French Sms","duration":3},{"id":1015995,"name":"Info France2","duration":9},{"id":105588,"name":"A Man And A Woman","duration":23},{"id":823982,"name":"French Ring Tones","duration":9},{"id":1162911,"name":"soupe opera 2","duration":2},{"id":1209690,"name":"Psg","duration":25},{"id":1229758,"name":"Tlf","duration":19},{"id":43190,"name":"Danse On Beach - RC Week 209","duration":30},{"id":1218226,"name":"French Lick","duration":12},{"id":119341,"name":"French Phone Call","duration":9},{"id":918001,"name":"Big Bang Theory Fr","duration":4},{"id":1016070,"name":"Princesse Sarah","duration":15},{"id":78261,"name":"Tant qu'on reve encore","duration":29},{"id":90375,"name":"Mirage","duration":29},{"id":298847,"name":"French Kiss","duration":29},{"id":1208398,"name":"Oh Mon Amour","duration":29},{"id":371343,"name":"French","duration":25},{"id":226251,"name":"Gronibard","duration":24},{"id":780185,"name":"Mauvais","duration":4},{"id":151571,"name":"Pepe Lepew","duration":19},{"id":806901,"name":"Donjon De Naheulbeuk","duration":13},{"id":378342,"name":"French Sms","duration":3},{"id":1348451,"name":"French - Bad Habits","duration":23},{"id":1185954,"name":"Message En Francais","duration":2},{"id":1141398,"name":"Tes Mots Me Manquent","duration":22},{"id":1216724,"name":"The Top Ring Tone","duration":27},{"id":1134564,"name":"Sexy Robottu-San","duration":16},{"id":1189982,"name":"Bouldogs Francais","duration":28},{"id":1116823,"name":"BaT Hdshi Frnch Maid","duration":4},{"id":1244202,"name":"Slaws","duration":24},{"id":1158987,"name":"Unforgettable","duration":5},{"id":945517,"name":"Rock King","duration":24},{"id":22647,"name":"Sexy","duration":9},{"id":231313,"name":"Dans Mon Repaire","duration":21},{"id":1029317,"name":"Uilenspiegel","duration":18},{"id":342733,"name":"Classic Piano Song","duration":29},{"id":1001857,"name":"Reysteal League","duration":29},{"id":882737,"name":"French Montana","duration":29},{"id":1240102,"name":"Breakout333","duration":29},{"id":372905,"name":"Les Visiiteurs","duration":16},{"id":1259937,"name":"French Sms","duration":4},{"id":381,"name":"French","duration":29},{"id":315830,"name":"French","duration":29},{"id":962280,"name":"Tu Mnerves","duration":2},{"id":138242,"name":"La Porte","duration":5},{"id":1123158,"name":"selfless Amelie","duration":26},{"id":1236614,"name":"Aimer","duration":29},{"id":1297523,"name":"French Version","duration":27},{"id":944612,"name":"My A Is Twitching","duration":5},{"id":1365182,"name":"Policesecours","duration":29},{"id":1162910,"name":"Soupe opera 1","duration":2},{"id":252247,"name":"Heywood Banks Toast","duration":21},{"id":234193,"name":"Une Souris Verte","duration":9},{"id":387272,"name":"Gourmandises Alizee","duration":15},{"id":1251409,"name":"J - Mouth Fixed","duration":28},{"id":928182,"name":"French Siren","duration":3},{"id":1178757,"name":"French Recipe Mach","duration":27},{"id":866594,"name":"Legio Patria Nostra","duration":12},{"id":1115961,"name":"Hola Mishamigos","duration":3},{"id":1277172,"name":"French Affair","duration":14},{"id":1141332,"name":"French Fuse - iFuse","duration":29},{"id":158952,"name":"French Cute","duration":7},{"id":1226205,"name":"Valse Des Niglos","duration":29},{"id":1182418,"name":"Nice Ringtones","duration":20},{"id":1224167,"name":"French Instrumental","duration":29},{"id":1279333,"name":"Beautiful Voicepiano","duration":25},{"id":1084277,"name":"Comsi Comsa","duration":24},{"id":1178783,"name":"Frere Jacques","duration":20},{"id":141440,"name":"French Christmas","duration":29},{"id":1228747,"name":"Brune","duration":7},{"id":1085389,"name":"Piano in French","duration":29},{"id":1141333,"name":"French Fuse - iFuse","duration":9},{"id":864006,"name":"Foamy French Fry","duration":27},{"id":945448,"name":"French String","duration":12},{"id":946034,"name":"Frech Strings","duration":4},{"id":248093,"name":"Rai Nb Fever Relic","duration":18},{"id":1237268,"name":"Top Cheesy","duration":29},{"id":780207,"name":"Kest Ce Tu Fais","duration":5},{"id":819658,"name":"French Toast","duration":6},{"id":1302514,"name":"French Sms","duration":1},{"id":138229,"name":"Ye Yaille","duration":9},{"id":969490,"name":"Le Bask - 300","duration":29},{"id":1142314,"name":"bo le lavabo LAGAF","duration":22},{"id":1289017,"name":"French Phonecall","duration":9},{"id":325954,"name":"Text Text Text","duration":10},{"id":1015993,"name":"Tf1 Pub","duration":4},{"id":1356889,"name":"Cool Intro 2010","duration":20},{"id":1261001,"name":"French Sms","duration":4},{"id":377849,"name":"French Sms","duration":1}]}