{"queryTime":"1 Seconds","totalCount":280,"pageNumber":1,"perPage":200,"pageCount":200,"data":[{"id":384523,"name":"Best Ringtone","duration":24},{"id":1010641,"name":"Flute Tone","duration":28},{"id":1127959,"name":"Celtic Ringtone","duration":21},{"id":817693,"name":"Sweet Tone Ever","duration":26},{"id":367332,"name":"Flute Remix","duration":29},{"id":884279,"name":"Airtel","duration":28},{"id":1157698,"name":"ALPHA - Flute","duration":30},{"id":978772,"name":"Flute Loud Alarm","duration":26},{"id":813994,"name":"Flute Ringtone","duration":21},{"id":105326,"name":"2011 Best Ringtone","duration":28},{"id":127932,"name":"Flute - Snakes Conj","duration":28},{"id":953994,"name":"Best Flute Mix","duration":28},{"id":915784,"name":"Flute Phir Mohabbat","duration":27},{"id":968078,"name":"Flute Sms","duration":3},{"id":1312757,"name":"Texas","duration":18},{"id":916926,"name":"Flute 4","duration":28},{"id":1015560,"name":"Android Timeless","duration":25},{"id":778712,"name":"Flute","duration":18},{"id":1027917,"name":"Flute Ringtone 2014","duration":29},{"id":856651,"name":"Awesome Flute","duration":29},{"id":916931,"name":"Flute","duration":13},{"id":174233,"name":"Soft Flute","duration":29},{"id":1008007,"name":"Sad Flute","duration":29},{"id":1038953,"name":"HeroPanti - Whistle","duration":11},{"id":1160537,"name":"dombrra","duration":29},{"id":1345699,"name":"Flute Sweet","duration":10},{"id":1011175,"name":"Flute Chandni","duration":17},{"id":130698,"name":"Flute","duration":27},{"id":1085685,"name":"Flute Beat","duration":21},{"id":874891,"name":"2012 Best Ringtone","duration":29},{"id":807724,"name":"2010 Best Ringtone","duration":29},{"id":918854,"name":"Reliance Flute2012","duration":27},{"id":283907,"name":"Har Dil Jo","duration":22},{"id":1228911,"name":"Wake Up Smoothly","duration":23},{"id":850329,"name":"Beautiful Flute","duration":19},{"id":963134,"name":"Bansuri Flute","duration":27},{"id":58784,"name":"Enigma Flute","duration":29},{"id":904119,"name":"Flute Tone","duration":14},{"id":1010336,"name":"Flute Ringtone","duration":20},{"id":1049777,"name":"Paper Flute","duration":22},{"id":114610,"name":"Romantic Ringtone","duration":14},{"id":152279,"name":"Cool Flute","duration":28},{"id":1165097,"name":"Despacito Flute 01","duration":23},{"id":155909,"name":"Roja Flute","duration":20},{"id":109746,"name":"Best Flute And Beats","duration":23},{"id":976844,"name":"Soft Flute Remix","duration":19},{"id":1150560,"name":"F the British Army","duration":19},{"id":1115421,"name":"Eto zdorovo","duration":21},{"id":1028596,"name":"Asoka Flute Sapno Se","duration":29},{"id":966247,"name":"Chilli Flute","duration":27},{"id":1033769,"name":"Best Romantic Flute","duration":26},{"id":1004723,"name":"Arabic Instrumental","duration":29},{"id":1355598,"name":"Best Flute 2010","duration":29},{"id":1005609,"name":"Teri Meri Flute","duration":29},{"id":1020520,"name":"Dont Be Shy Flute","duration":8},{"id":1243618,"name":"Blissful Alarm","duration":28},{"id":283531,"name":"Vande Mataram Flute","duration":29},{"id":1302311,"name":"Love Flute","duration":29},{"id":128160,"name":"Flute Song","duration":29},{"id":963955,"name":"Flute Ringtone","duration":15},{"id":939683,"name":"Iphone Bird Flute","duration":27},{"id":284278,"name":"Classic","duration":29},{"id":1036756,"name":"ek Villain Flute","duration":28},{"id":123872,"name":"Devotional Flute","duration":11},{"id":127150,"name":"Flute Music","duration":24},{"id":1023454,"name":"Flute","duration":8},{"id":1083856,"name":"Flute March","duration":29},{"id":1262015,"name":"The Flute","duration":29},{"id":109438,"name":"Flute Ringtone Choti","duration":24},{"id":985528,"name":"Aatif Flute","duration":28},{"id":127551,"name":"Flute Ringtone","duration":11},{"id":47104,"name":"FLUTE FEEL","duration":24},{"id":115177,"name":"Apkiflute","duration":19},{"id":994859,"name":"Flute","duration":21},{"id":219768,"name":"Flute Ringtone","duration":27},{"id":1098250,"name":"flute ascending","duration":25},{"id":1018448,"name":"Flute Ringtone","duration":29},{"id":783488,"name":"Flute Ringtone","duration":23},{"id":126989,"name":"Flute Sms","duration":5},{"id":1155028,"name":"BAHUBALI FLUTE FULL","duration":30},{"id":115620,"name":"Flute Theme","duration":28},{"id":994842,"name":"Flute","duration":25},{"id":1088901,"name":"Wild Ringtone","duration":29},{"id":1034599,"name":"Flute message tone","duration":1},{"id":983966,"name":"Flute - Ar 41","duration":28},{"id":882657,"name":"Best Ringtone Ever","duration":28},{"id":955357,"name":"Behenede Vs Flute","duration":22},{"id":58591,"name":"FLUTE FEEL","duration":17},{"id":878079,"name":"Flute Ringtone","duration":5},{"id":1053229,"name":"Flute Soft Ringtone","duration":20},{"id":876913,"name":"So Sweet","duration":29},{"id":128409,"name":"Flute Song","duration":26},{"id":286840,"name":"Dileep  Ringtone 2","duration":20},{"id":46405,"name":"Whistle","duration":18},{"id":986468,"name":"Flute Ringtone","duration":29},{"id":784055,"name":"Sharhade Insanno Ke","duration":29},{"id":1142627,"name":"The Flutist","duration":23},{"id":1317562,"name":"Best Flute","duration":25},{"id":1290044,"name":"Best Ringtone Ever","duration":28},{"id":787533,"name":"Behene De Vs Flute","duration":22},{"id":242801,"name":"Flute Feel","duration":24},{"id":1338589,"name":"Tripple Flute Effect","duration":2},{"id":995911,"name":"Violin And Flute","duration":29},{"id":875689,"name":"2011 Flute Tone","duration":28},{"id":811008,"name":"Best Romantic Tone","duration":26},{"id":1049119,"name":"Superb Flute 2014","duration":22},{"id":151429,"name":"Flute Love","duration":29},{"id":851721,"name":"2011 Best Ringtone","duration":24},{"id":116599,"name":"Sad Flute New","duration":28},{"id":316567,"name":"Nice Flute Ringtone","duration":15},{"id":904125,"name":"Flute Tone 2","duration":19},{"id":1152777,"name":"Avaritia Ringtone","duration":30},{"id":1348639,"name":"Classical Flute Ring","duration":26},{"id":88030,"name":"Chinese Flute","duration":28},{"id":1239921,"name":"Cool Ringtone","duration":29},{"id":1004031,"name":"Flute Ringtone","duration":9},{"id":1004420,"name":"Flute Ringtone","duration":21},{"id":89699,"name":"Ringtone Flute","duration":10},{"id":1092162,"name":"Bine tere","duration":12},{"id":128212,"name":"Flute Pakistani","duration":16},{"id":926614,"name":"Flute Bolly","duration":28},{"id":1149007,"name":"Best Sad Flute Tone","duration":15},{"id":243651,"name":"Sad Pakistani Flute","duration":8},{"id":1055550,"name":"arabic flute cool","duration":20},{"id":858864,"name":"Flute Magic","duration":25},{"id":1280484,"name":"Flute Luck","duration":14},{"id":899624,"name":"Flute And Bell Ring","duration":16},{"id":15227,"name":"Flute Ringtone","duration":27},{"id":1004741,"name":"Arabic Flute","duration":28},{"id":275282,"name":"Flute Ringtone","duration":29},{"id":39468,"name":"Reliance Flute","duration":21},{"id":884883,"name":"Yamma Yamma Flute","duration":29},{"id":872812,"name":"Old Istanbul","duration":26},{"id":52617,"name":"Character Dheela- Just flute","duration":28},{"id":979377,"name":"Flute Phir Mohabbat","duration":28},{"id":118401,"name":"Flute","duration":16},{"id":58809,"name":"Whistle 1","duration":17},{"id":1084528,"name":"Classic Guitar","duration":28},{"id":1231877,"name":"Flute Wonderland","duration":16},{"id":1108769,"name":"Nice Flute","duration":25},{"id":1163004,"name":"Bourma piges","duration":15},{"id":46399,"name":"Whistle 1","duration":23},{"id":1015563,"name":"Chrystal Ringtone","duration":19},{"id":145840,"name":"Ramayan Flute  Best","duration":29},{"id":343346,"name":"Dileep  Ringtone 9","duration":16},{"id":1146248,"name":"Beautiful Aaqa Flute","duration":14},{"id":1017597,"name":"Hottest Sound","duration":19},{"id":1034598,"name":"Flute Phir Mohabbat","duration":29},{"id":87591,"name":"Cool Flute","duration":28},{"id":1211203,"name":"Best Flute U Can Get","duration":12},{"id":1153540,"name":"Flute Ringtone Best","duration":26},{"id":887677,"name":"Chocoflute","duration":29},{"id":944448,"name":"Flute Ringtone","duration":26},{"id":784060,"name":"Ghar Se Nikalte Hi","duration":18},{"id":861071,"name":"Chinese Flute","duration":28},{"id":926932,"name":"Best Flute Mix","duration":28},{"id":875691,"name":"2011 Soft Flute","duration":26},{"id":1004035,"name":"Flute Ringtone","duration":18},{"id":1146220,"name":"Native tune","duration":7},{"id":864169,"name":"Awesome Music","duration":28},{"id":105308,"name":"Melody","duration":25},{"id":987582,"name":"Flute Theme","duration":19},{"id":53400,"name":"Nice flute","duration":25},{"id":787151,"name":"Beautiful Flute","duration":28},{"id":1162466,"name":"Cherokee Flute","duration":30},{"id":879236,"name":"Flute Fantastic","duration":28},{"id":1023301,"name":"Breathles Flute","duration":28},{"id":820140,"name":"2010 Best Ringtone","duration":20},{"id":1006610,"name":"Devaraga Flute","duration":24},{"id":1227390,"name":"Touch","duration":23},{"id":913842,"name":"Flute Ringtone 2o","duration":27},{"id":120448,"name":"2011 Best Ringtone","duration":26},{"id":126637,"name":"Flute Love","duration":21},{"id":848302,"name":"Flute New Ringtone","duration":19},{"id":1001069,"name":"Flute","duration":27},{"id":1156719,"name":"sirimalle puvva","duration":26},{"id":1250580,"name":"Flute Ringtone","duration":28},{"id":899634,"name":"Flute Alert","duration":16},{"id":192809,"name":"Dsk","duration":29},{"id":1034597,"name":"Flute Anjana Anjani","duration":28},{"id":1103334,"name":"New Kanun Flute Vol2","duration":26},{"id":1001991,"name":"Flute-phir-mohabbat","duration":28},{"id":124565,"name":"2011 Best Ringtone","duration":28},{"id":133596,"name":"Best Flute Ringtone","duration":28},{"id":1157051,"name":"new one","duration":19},{"id":893697,"name":"Flute Alert","duration":16},{"id":1032427,"name":"Arabic Flute","duration":20},{"id":1357201,"name":"Cute Flute","duration":27},{"id":162440,"name":"Flute Nice","duration":28},{"id":58815,"name":"Whistle","duration":8},{"id":1038802,"name":"Flute ringtone","duration":22},{"id":1166660,"name":"Barcode - Flute","duration":30},{"id":788558,"name":"Rab Ne Bana Di Jodi","duration":23},{"id":1153538,"name":"Flute 2017","duration":17},{"id":221129,"name":"Flute Bestringtone","duration":28},{"id":128199,"name":"Cool Flute","duration":27},{"id":153782,"name":"Flute Song","duration":28},{"id":284994,"name":"Thank You Full Flute","duration":14},{"id":48248,"name":"Chinese Flute","duration":29},{"id":861707,"name":"Chinese Flute","duration":28}]}