{"queryTime":"0 Seconds","totalCount":421,"pageNumber":1,"perPage":200,"pageCount":200,"data":[{"id":999027,"name":"Cute Baby Laugh","duration":29},{"id":1305378,"name":"Auto Tune","duration":27},{"id":1055246,"name":"Baby Singing","duration":29},{"id":1269714,"name":"Baby Laughing","duration":14},{"id":1181112,"name":"Slide","duration":4},{"id":1227330,"name":"Baby Cry","duration":2},{"id":943393,"name":"Baby Cry Tone","duration":18},{"id":367438,"name":"Laughing Xmas Baby","duration":29},{"id":1192117,"name":"Funny Message","duration":12},{"id":345644,"name":"Funny Tone","duration":16},{"id":801328,"name":"Funny Mosquito Tone","duration":23},{"id":789008,"name":"To Late To Apologize","duration":15},{"id":849007,"name":"Snore Funny","duration":7},{"id":781255,"name":"Punjabi Style Baby","duration":2},{"id":249456,"name":"Baby Song","duration":29},{"id":7998,"name":"Baby SMS tone","duration":3},{"id":1191180,"name":"Very Cute Baby Laugh","duration":3},{"id":347982,"name":"Funny Song","duration":16},{"id":345628,"name":"Ohani Odhu","duration":16},{"id":132493,"name":"Real Baby Abc","duration":28},{"id":1339232,"name":"Funny Cartoon","duration":25},{"id":151498,"name":"Baby Singing Abcs","duration":24},{"id":850469,"name":"Message Aala Re","duration":10},{"id":854373,"name":"Baby Laughing","duration":1},{"id":31301,"name":"Baby bleeding luv","duration":22},{"id":110667,"name":"Baby Turbo Funny","duration":22},{"id":1344547,"name":"Baby","duration":5},{"id":1193934,"name":"Baby-v Will Rock U","duration":22},{"id":856922,"name":"Multiple Babies Cry","duration":20},{"id":205530,"name":"Darling Baby Mix","duration":29},{"id":291950,"name":"Kisses","duration":4},{"id":280589,"name":"Dis Guys Inluv Wid U","duration":6},{"id":926006,"name":"Baby Cute Song","duration":23},{"id":139429,"name":"Baby Melody","duration":25},{"id":194955,"name":"Sleepy","duration":29},{"id":168845,"name":"New Baby Rap","duration":7},{"id":1307295,"name":"Baby Laugh Version 3","duration":25},{"id":286349,"name":"Little Phone","duration":22},{"id":1174444,"name":"Baby Laughing Crazy","duration":6},{"id":1257693,"name":"Mad Baby Remix","duration":29},{"id":199046,"name":"Baby","duration":29},{"id":1330177,"name":"Baby","duration":22},{"id":961432,"name":"Funny Baby Chick","duration":21},{"id":887568,"name":"Baby Temp Tone","duration":29},{"id":292097,"name":"Excuuuuuuse Me","duration":10},{"id":124530,"name":"Baby Mix Humko Pyar","duration":16},{"id":384244,"name":"Cute Baby Baby","duration":10},{"id":154395,"name":"Funny Baby","duration":21},{"id":1224205,"name":"Rofl","duration":3},{"id":252774,"name":"Peep Peepo","duration":15},{"id":383324,"name":"Funny Call","duration":24},{"id":377102,"name":"I Love U","duration":29},{"id":1263389,"name":"Baby Laugh","duration":11},{"id":1288955,"name":"Baby","duration":2},{"id":151271,"name":"Babylaughter","duration":5},{"id":947857,"name":"Baby Funny Vibrating","duration":14},{"id":1197735,"name":"Baby Remix","duration":29},{"id":1273167,"name":"Hi Sweety I Love U","duration":2},{"id":891892,"name":"Baby Group Song","duration":14},{"id":1191528,"name":"Littlechild Laughing","duration":23},{"id":88965,"name":"Baby Rapper","duration":21},{"id":249454,"name":"Baby Laughing","duration":7},{"id":200107,"name":"Crazy Baby","duration":28},{"id":845536,"name":"Mummy","duration":26},{"id":778900,"name":"Oh Deva","duration":28},{"id":1303894,"name":"Phone Upado Ne","duration":26},{"id":808925,"name":"Moghli Aazam Baby","duration":28},{"id":778889,"name":"Doctor","duration":4},{"id":312970,"name":"Cool Sms","duration":6},{"id":242484,"name":"Baby Devil Laugh","duration":3},{"id":172471,"name":"Funny Rrrring","duration":29},{"id":1283106,"name":"Baby Tempreture","duration":29},{"id":1203638,"name":"Techno Baby","duration":27},{"id":868498,"name":"Toy Cartoon Voice","duration":5},{"id":172231,"name":"Very Funny Baby Ring","duration":18},{"id":1259890,"name":"Baby Bollywood 2009","duration":26},{"id":921449,"name":"Sheila Baby Ver","duration":28},{"id":89214,"name":"Baby ABC","duration":13},{"id":186367,"name":"Putng Ina Mo","duration":20},{"id":801198,"name":"Atif Funny Baby","duration":27},{"id":1167778,"name":"Kill me baby","duration":16},{"id":1237692,"name":"Most Latest Sms 2009","duration":4},{"id":253062,"name":"Funny Baby","duration":24},{"id":1177954,"name":"Crazy Baby Laugh","duration":16},{"id":819562,"name":"Aaspas Khuda Babymix","duration":28},{"id":781759,"name":"Funky Funny Tone","duration":25},{"id":939033,"name":"Mitch Match Theme","duration":28},{"id":148614,"name":"Funny Baby Song","duration":5},{"id":1307359,"name":"Funny Farting","duration":10},{"id":1230503,"name":"Funny Baby Sms 2009","duration":7},{"id":819572,"name":"Zor Ka Baby Mix","duration":21},{"id":252783,"name":"Duck Ring","duration":12},{"id":1202811,"name":"Bemu Mita","duration":14},{"id":291849,"name":"Baby Warning","duration":11},{"id":817360,"name":"Baby Crying","duration":20},{"id":164779,"name":"Baby Fart","duration":26},{"id":1198924,"name":"Mensaje Baby","duration":27},{"id":1209976,"name":"Sms Whistle","duration":2},{"id":833137,"name":"You Have Callnot","duration":5},{"id":846889,"name":"Amplifier Baby Mix","duration":27},{"id":1205111,"name":"Baby Hip Hop Laugh","duration":22},{"id":1239356,"name":"Dj Crazy Baby","duration":29},{"id":250396,"name":"Baby Cry","duration":39},{"id":1335688,"name":"Funny Baby","duration":5},{"id":940739,"name":"Baby Jingle Bell","duration":20},{"id":954439,"name":"Baby Tweet","duration":2},{"id":88795,"name":"Baby sneeze","duration":1},{"id":1261714,"name":"Funny Baby Frt Sms09","duration":3},{"id":1179873,"name":"Kuroneko No Tango","duration":29},{"id":823515,"name":"Banana Phone","duration":29},{"id":816523,"name":"Baby Shinshan","duration":29},{"id":905128,"name":"Funny Baby","duration":19},{"id":240555,"name":"Prohetian","duration":28},{"id":796287,"name":"Latest Ringtone","duration":29},{"id":141616,"name":"Funny Tone","duration":16},{"id":838735,"name":"Baby Says","duration":1},{"id":129464,"name":"Baby Hello Cute","duration":14},{"id":1349890,"name":"Toon Tone","duration":11},{"id":1212620,"name":"Babysong","duration":6},{"id":905623,"name":"Funny Baby","duration":1},{"id":895850,"name":"Babygirl Laughing","duration":12},{"id":130663,"name":"Baby Teased","duration":7},{"id":347308,"name":"Manassamine","duration":29},{"id":347394,"name":"Dur Detre Bebe","duration":25},{"id":816339,"name":"Please Read It","duration":4},{"id":790448,"name":"Baby Toy Funny Sms","duration":7},{"id":346248,"name":"Baby Gabbar Smile","duration":16},{"id":121533,"name":"Ver Funny Call 2010","duration":9},{"id":1197842,"name":"Baby Jonny","duration":12},{"id":345042,"name":"Fifa Hindi Funny","duration":28},{"id":1206060,"name":"Baby Mix","duration":12},{"id":819570,"name":"O Bekhabar Baby Mix","duration":29},{"id":114131,"name":"Funny Lamhe","duration":29},{"id":173460,"name":"Hungry Babies Crying","duration":29},{"id":1211575,"name":"Baby Sms","duration":2},{"id":1221150,"name":"Bad Baby","duration":5},{"id":807206,"name":"Baby Funny Song","duration":25},{"id":1248343,"name":"Crazyxbaby","duration":8},{"id":49723,"name":"BABY","duration":4},{"id":249556,"name":"Baby Laughing","duration":7},{"id":914414,"name":"Thousand Words","duration":6},{"id":180555,"name":"Bahong Utot - Xela","duration":3},{"id":849475,"name":"Funny Bubble Pop","duration":6},{"id":253990,"name":"Nokia Iranian Beats","duration":10},{"id":1344583,"name":"Funny Bell Ring","duration":8},{"id":156612,"name":"Baj Raha Hai","duration":21},{"id":812828,"name":"O Sole Mio","duration":20},{"id":1361904,"name":"Baby Pop And Jazz","duration":28},{"id":805112,"name":"Baby S Toy","duration":1},{"id":291243,"name":"Baby Yabbadabbadoo","duration":4},{"id":1320430,"name":"Funny Baby Song","duration":10},{"id":134226,"name":"Baby Fun Smile","duration":21},{"id":186445,"name":"2011 Funny Joni","duration":7},{"id":1345196,"name":"Aqueous Remix","duration":29},{"id":202662,"name":"Baby Drumbeats Laugh","duration":27},{"id":956897,"name":"Crazy Baby Msg","duration":11},{"id":165130,"name":"Old Mcdonald","duration":20},{"id":77344,"name":"Baby Laughing","duration":15},{"id":169641,"name":"Cf Stuttering","duration":6},{"id":88493,"name":"baby","duration":11},{"id":1189169,"name":"The Real Sugar Baby","duration":28},{"id":210005,"name":"Ongongong","duration":26},{"id":256365,"name":"Come On Baby","duration":23},{"id":367821,"name":"Baby Singing","duration":14},{"id":179656,"name":"Funny Munni","duration":29},{"id":250561,"name":"Baby","duration":29},{"id":249866,"name":"First Voice","duration":7},{"id":1217774,"name":"Myfirstdriving","duration":19},{"id":156654,"name":"Baby Laughs","duration":17},{"id":819559,"name":"Nakhre Baby Mix","duration":29},{"id":131925,"name":"Funny Baby","duration":22},{"id":808228,"name":"Giddy Laugh","duration":1},{"id":1223072,"name":"3 Yrs Baby Jan Gan M","duration":29},{"id":801576,"name":"Auto O Auto","duration":3},{"id":836361,"name":"Baby Uuuu Sms","duration":13},{"id":913917,"name":"Baby Momma Alarm","duration":11},{"id":1179863,"name":"Aia Yupi Baby","duration":8},{"id":153640,"name":"Mama Funny","duration":6},{"id":826336,"name":"Twinkle Baby Rap","duration":15},{"id":144267,"name":"Lalala Funny","duration":16},{"id":180552,"name":"Text Ng Text Galit","duration":4},{"id":367733,"name":"Nitrous Oxide","duration":17},{"id":1355230,"name":"Baby Sneeze Fart","duration":6},{"id":129681,"name":"Funny Baby","duration":16},{"id":171296,"name":"Cute Kiss","duration":2},{"id":814804,"name":"Baby Cry","duration":28},{"id":1191601,"name":"Baby Elephant Walk","duration":22},{"id":1250630,"name":"Kids Voice","duration":1},{"id":106485,"name":"Baby Voive New","duration":8},{"id":199542,"name":"Mamaaa","duration":2},{"id":291426,"name":"Funny Wake Up","duration":15},{"id":817096,"name":"Mama Message","duration":4},{"id":816138,"name":"Baby Remix 2010","duration":29},{"id":910045,"name":"Funny Lota","duration":29},{"id":291148,"name":"Arabic Baby","duration":20},{"id":1197532,"name":"Baby Koundamani","duration":7},{"id":290867,"name":"Singing Baby","duration":19},{"id":294384,"name":"Baby Laughing Short","duration":17},{"id":997655,"name":"Emma","duration":11},{"id":1286711,"name":"Funny Baby","duration":17}]}