{"queryTime":"1 Seconds","totalCount":3262,"pageNumber":1,"perPage":200,"pageCount":200,"data":[{"id":1149659,"name":"Midnight","duration":19},{"id":291251,"name":"Best Ringtone Ever","duration":28},{"id":1154368,"name":"Death By Airhorns","duration":6},{"id":1155629,"name":"Whos Who Jingle","duration":24},{"id":1153509,"name":"Kowze Minsco - Engin","duration":11},{"id":945948,"name":"Aa Ante Funny","duration":28},{"id":1148361,"name":"Povestea Sufletului","duration":30},{"id":1307083,"name":"Ha Ha Sms Fun","duration":5},{"id":1358791,"name":"Centalen","duration":19},{"id":49140,"name":"Angry Indian (Fun Ringtone)","duration":12},{"id":282276,"name":"Twinkle Twinkle","duration":14},{"id":1164415,"name":"Daughter Angie","duration":14},{"id":1154446,"name":"Santana Style Jam","duration":30},{"id":836396,"name":"Car Alarm","duration":28},{"id":1157275,"name":"Millind Gaba","duration":28},{"id":1147388,"name":"Right Here","duration":30},{"id":1161621,"name":"Stormzy - Shut Up","duration":18},{"id":150220,"name":"Funny Ringtone 2011","duration":12},{"id":1150167,"name":"funny","duration":17},{"id":171316,"name":"Funny Ringtone","duration":24},{"id":48090,"name":"Wah-Wah--Wurg","duration":2},{"id":325851,"name":"Your Man","duration":26},{"id":1154327,"name":"DJ army Dj Armagan","duration":30},{"id":1164624,"name":"Piano INOSLE","duration":29},{"id":1252781,"name":"Tzr Tzr Tzr","duration":10},{"id":1150751,"name":"Ukulukulu","duration":1},{"id":1157098,"name":"Pickle Rick","duration":1},{"id":1154644,"name":"KK Antidote","duration":30},{"id":210584,"name":"Health Tone","duration":14},{"id":372474,"name":"Cranck","duration":7},{"id":1154778,"name":"Dad is Great","duration":6},{"id":1167544,"name":"Aloha Snackbar","duration":30},{"id":1163850,"name":"iphone 6Plus","duration":26},{"id":1162674,"name":"Come to Besiktas","duration":30},{"id":793435,"name":"Bow And Arrow","duration":1},{"id":1050185,"name":"ZYXWVUT","duration":1},{"id":1147538,"name":"HamsterDance","duration":9},{"id":1159754,"name":"Sifir Bir Pusula","duration":30},{"id":817674,"name":"Fart","duration":3},{"id":313075,"name":"Nanana","duration":29},{"id":164839,"name":"Indian Phone","duration":10},{"id":1152970,"name":"Afterhours","duration":30},{"id":1163079,"name":"Problem parodie","duration":29},{"id":1022719,"name":"Vine Mean Brother","duration":6},{"id":30681,"name":"Fart contest  *2011**","duration":19},{"id":1158548,"name":"MrMr-Waiting For You","duration":30},{"id":291023,"name":"Loons Call","duration":11},{"id":1119658,"name":"ok Gzelsin","duration":2},{"id":1160450,"name":"Movin - bleach ed 8","duration":23},{"id":1149492,"name":"5bit hero","duration":30},{"id":1164188,"name":"ali kinik","duration":28},{"id":1157130,"name":"Despacito cute ring","duration":28},{"id":779018,"name":"Snimai Tryby","duration":4},{"id":1152478,"name":"iSpy Marimba Remix","duration":21},{"id":1164185,"name":"mustafa ozarslan","duration":21},{"id":289999,"name":"Snoopy","duration":27},{"id":871247,"name":"Nokia Remix","duration":19},{"id":1339428,"name":"Message Funny","duration":11},{"id":963275,"name":"Were Fresh","duration":17},{"id":1156996,"name":"Christmas ringtone","duration":17},{"id":1148460,"name":"Zynth sounds","duration":21},{"id":992611,"name":"Homer Face","duration":29},{"id":1176618,"name":"Funny Karate","duration":12},{"id":1108243,"name":"Daffy ringtone","duration":13},{"id":1160397,"name":"TRANSFORMERS","duration":8},{"id":1159852,"name":"Sweet Shanai RT","duration":26},{"id":1362956,"name":"Benny","duration":16},{"id":1165186,"name":"CRE Laugh","duration":13},{"id":1156326,"name":"ouff","duration":1},{"id":1164281,"name":"car sound3","duration":20},{"id":313729,"name":"Nokia Mr Bean","duration":17},{"id":1159836,"name":"Mask Scream","duration":24},{"id":1152375,"name":"Laugh Joker Batman","duration":5},{"id":1162614,"name":"Bang Bang Kusai","duration":30},{"id":1155828,"name":"sakana","duration":30},{"id":1160475,"name":"Vlaxa","duration":12},{"id":1161739,"name":"Woah Crash Bandicoot","duration":7},{"id":1149620,"name":"Pukavali Funny Tone","duration":26},{"id":1148876,"name":"Ending","duration":19},{"id":1361904,"name":"Baby Pop And Jazz","duration":28},{"id":1161419,"name":"Mawjou3 Best Arabic","duration":15},{"id":1152919,"name":"Otan to Anoikseis","duration":15},{"id":1157226,"name":"CSD Notification 37","duration":5},{"id":1163264,"name":"Perfect Strangers","duration":29},{"id":1162974,"name":"Chicken balls","duration":20},{"id":1157132,"name":"dotto ringhton 3","duration":9},{"id":290514,"name":"El Mudo Ringtone","duration":28},{"id":63229,"name":"Applause Funny Ringtone HTC","duration":30},{"id":1163262,"name":"letmeloveyou","duration":18},{"id":363402,"name":"Punjabi Sms","duration":28},{"id":1161436,"name":"DROP YOU LIKE","duration":29},{"id":988385,"name":"Funny Ringtone New","duration":18},{"id":837068,"name":"Star Wars Message","duration":5},{"id":915437,"name":"Aai Funny","duration":17},{"id":1341518,"name":"A-a-a-a-apchxi","duration":5},{"id":1151223,"name":"fobiq ot delnici","duration":20},{"id":1151301,"name":"zelda","duration":30},{"id":1162486,"name":"Pokemon Marimba","duration":28},{"id":1176534,"name":"Cell Addict","duration":13},{"id":1223276,"name":"Estan Llamando","duration":5},{"id":1165110,"name":"Fako Remix","duration":29},{"id":31078,"name":"old smuggler ringtone","duration":30},{"id":1055159,"name":"Friendship","duration":22},{"id":1161248,"name":"Dream Daddy Mid","duration":30},{"id":385574,"name":"Nokia New","duration":28},{"id":263385,"name":"Cant Touch Me","duration":28},{"id":955445,"name":"10 Seconds","duration":16},{"id":1107825,"name":"2 Tone Txt Messasge","duration":7},{"id":1164617,"name":"Crunk Synth","duration":3},{"id":1163687,"name":"wiggle wiggle","duration":23},{"id":1165141,"name":"Youtube Poop","duration":5},{"id":792973,"name":"Mixed Babylaughing","duration":24},{"id":1177462,"name":"Looking Stupid","duration":6},{"id":191178,"name":"Friend Calling","duration":25},{"id":1175907,"name":"Ugly Sms","duration":8},{"id":1166766,"name":"Come And Get It","duration":27},{"id":1163261,"name":"Iphone 6s Remix","duration":29},{"id":1154565,"name":"Risa en Vacaciones","duration":16},{"id":1163137,"name":"Hard Old School","duration":25},{"id":386514,"name":"Funny Ringtone","duration":29},{"id":1361293,"name":"Screaming","duration":2},{"id":1155009,"name":"cool","duration":19},{"id":1358793,"name":"Haaaalloo","duration":17},{"id":1149212,"name":"Captain Underpants","duration":17},{"id":1160088,"name":"daughters  mom","duration":14},{"id":1148500,"name":"Ring nokia clasico 5","duration":9},{"id":1155631,"name":"Rooster Android","duration":3},{"id":1183138,"name":"The Person Calling","duration":13},{"id":1155829,"name":"raja","duration":26},{"id":1163670,"name":"klby atmnah","duration":30},{"id":776285,"name":"Funny Ringtone","duration":28},{"id":1328504,"name":"Funny Ringtone 1","duration":21},{"id":1162519,"name":"Creepy Old Man","duration":9},{"id":1313593,"name":"Bada Bing Ring","duration":15},{"id":289697,"name":"Answer Me","duration":15},{"id":1152710,"name":"VivimosenLAAEIOU","duration":23},{"id":823693,"name":"Cat Meows","duration":29},{"id":1016908,"name":"Ive Got A Friend","duration":17},{"id":1361288,"name":"Lint Liker","duration":21},{"id":1157878,"name":"pre game song","duration":30},{"id":1183609,"name":"Brake Your Balls","duration":13},{"id":1361903,"name":"Arabian Mix","duration":29},{"id":1164558,"name":"Arabic Bass","duration":30},{"id":1193608,"name":"Tzrrrr","duration":10},{"id":836108,"name":"Friend Calling","duration":4},{"id":874024,"name":"Funny Sms Tone","duration":4},{"id":89161,"name":"ZooZoo Fight","duration":17},{"id":75506,"name":"iPhone - Cool Sound best 2011","duration":30},{"id":1160741,"name":"Hi Babygirl","duration":2},{"id":1156253,"name":"Messenger","duration":28},{"id":1037044,"name":"Minion","duration":21},{"id":1333987,"name":"Funny Pick Up 3","duration":10},{"id":1163127,"name":"There leaves","duration":6},{"id":984107,"name":"Laughing","duration":8},{"id":1162853,"name":"Baby Laugh - Aaliyah","duration":8},{"id":263442,"name":"Excuse Me","duration":2},{"id":1343048,"name":"Off The Hook Phone","duration":11},{"id":1159630,"name":"3rd rock from SUN","duration":30},{"id":1338328,"name":"Bass Beat Chicken","duration":26},{"id":1152835,"name":"Csikos Post","duration":30},{"id":1177463,"name":"Mike Hunt","duration":11},{"id":1160504,"name":"Swiggity Swag","duration":28},{"id":1163459,"name":"RingtonesBass","duration":21},{"id":950472,"name":"Messaaage","duration":4},{"id":6485,"name":"Bizarre ringtone","duration":14},{"id":1159052,"name":"zeldaremix","duration":18},{"id":1163868,"name":"Unenthusiastic Alarm","duration":15},{"id":1178961,"name":"Answer","duration":25},{"id":347312,"name":"Work Ringtone","duration":16},{"id":154450,"name":"Chipmunkslow","duration":28},{"id":1026516,"name":"Dingus Ringtone","duration":17},{"id":1158975,"name":"Sharmovis","duration":18},{"id":1203421,"name":"Candy Mountain Song","duration":19},{"id":1162394,"name":"Shhoting Stars","duration":29},{"id":1154604,"name":"La Ultima Vez Anuel","duration":30},{"id":1175331,"name":"Tai Mai Shu","duration":8},{"id":1164371,"name":"Nice Drop 41","duration":30},{"id":1163124,"name":"Over the Horizon","duration":30},{"id":1152945,"name":"Bass Hareket Patlama","duration":29},{"id":291764,"name":"The Stripper","duration":29},{"id":199302,"name":"Cute Ringtone","duration":15},{"id":1149852,"name":"Think Music","duration":30},{"id":1155339,"name":"Island730","duration":20},{"id":1164949,"name":"girlfriend calling","duration":29},{"id":896030,"name":"Goal","duration":4},{"id":1164648,"name":"RemixUmbrella2017","duration":30},{"id":1158216,"name":"Shopee 4x","duration":2},{"id":1165260,"name":"hey mickey","duration":13},{"id":1159699,"name":"I dont like this","duration":30},{"id":783452,"name":"Funny","duration":3},{"id":1157902,"name":"eroina mea lung","duration":30},{"id":823692,"name":"Car Siren","duration":1},{"id":1159583,"name":"Chainsaw Idle","duration":2},{"id":1162565,"name":"Geri Nikol Naprao","duration":30},{"id":1157846,"name":"Love With The Enemy","duration":23},{"id":301402,"name":"Sms Ringtone","duration":9},{"id":1156327,"name":"yeah bone","duration":18},{"id":1159236,"name":"Meow Meow Im a cow","duration":3},{"id":1238747,"name":"Rooster","duration":5},{"id":1158070,"name":"I m 16 - Going on 17","duration":26}]}