{"queryTime":"0 Seconds","totalCount":9892,"pageNumber":1,"perPage":200,"pageCount":200,"data":[{"id":887359,"name":"Nokia","duration":29},{"id":227496,"name":"Guitar Beat","duration":29},{"id":1296113,"name":"Guitar Melody","duration":26},{"id":217769,"name":"Heavy Guitar","duration":14},{"id":1202276,"name":"Oceans Persian Theme","duration":14},{"id":222811,"name":"Xmen Guitar Theme","duration":16},{"id":324446,"name":"Nagin The Lady Cobra","duration":29},{"id":85077,"name":"Crack Music","duration":28},{"id":904463,"name":"Unbeaten Guitar","duration":18},{"id":1114868,"name":"Halo Notification 2","duration":7},{"id":996367,"name":"Darr Guitar","duration":26},{"id":196033,"name":"Blues Type Thing","duration":28},{"id":226834,"name":"Givin It","duration":29},{"id":1087468,"name":"Solid Rock Drum","duration":10},{"id":15289,"name":"guitar","duration":13},{"id":885471,"name":"Dil Chata Hai","duration":27},{"id":839384,"name":"Love 4 Ever Tone","duration":28},{"id":1362484,"name":"My Guitar","duration":29},{"id":126994,"name":"Club Guitar","duration":19},{"id":896333,"name":"Guitar Ringtone","duration":15},{"id":237073,"name":"Dusk Rock","duration":29},{"id":1084528,"name":"Classic Guitar","duration":28},{"id":1341024,"name":"Prince Theme- Guitar","duration":16},{"id":386257,"name":"Spanish Guitar","duration":21},{"id":801837,"name":"Hearty Love Tune","duration":29},{"id":105801,"name":"Aap Jaisa Koi","duration":29},{"id":1268963,"name":"Cool Guitar Tune","duration":28},{"id":10301,"name":"most cool guitar","duration":13},{"id":223924,"name":"2nd Try","duration":19},{"id":237341,"name":"Paul Gilbert - Hurry","duration":29},{"id":1350021,"name":"Lovely","duration":26},{"id":167936,"name":"Iphone Guitar","duration":10},{"id":1003725,"name":"Romantic Guitar","duration":29},{"id":1203770,"name":"Lollipop Pt 3","duration":27},{"id":232409,"name":"Just Falls Apar","duration":14},{"id":138724,"name":"Romantic Guitar Tone","duration":19},{"id":851371,"name":"Guitar Drift","duration":20},{"id":1274152,"name":"Acoustic Guitar Sms","duration":2},{"id":1109037,"name":"Zandunga","duration":26},{"id":833870,"name":"Sweet Guitar Ever","duration":11},{"id":73245,"name":"sound effects","duration":23},{"id":113856,"name":"Aidora Guitar","duration":29},{"id":996156,"name":"Dabangg 2 Guitar","duration":24},{"id":959564,"name":"Love Is All Guitar","duration":28},{"id":1025641,"name":"Guitar SMS","duration":3},{"id":333797,"name":"Kestucio 52","duration":12},{"id":1016291,"name":"Relaxing Guitar","duration":25},{"id":245005,"name":"Awesome Guitar","duration":23},{"id":146167,"name":"Guitar 2011","duration":2},{"id":869340,"name":"Am Rock Intro","duration":28},{"id":872697,"name":"Romantic Tune","duration":24},{"id":250146,"name":"Clap Guitar","duration":25},{"id":1051188,"name":"Genoa Transit Funk","duration":29},{"id":239690,"name":"Funk Wah Guitar","duration":16},{"id":1238961,"name":"Nice Guitar","duration":29},{"id":883966,"name":"Romantic Music","duration":21},{"id":284741,"name":"Electric Guitar","duration":18},{"id":944269,"name":"Spanish Guitar","duration":15},{"id":871856,"name":"Best Guitar Ever","duration":21},{"id":1309705,"name":"Guitar","duration":16},{"id":1036961,"name":"MLP Metal","duration":29},{"id":984830,"name":"Guitar","duration":27},{"id":152718,"name":"Choli Guitar","duration":13},{"id":904608,"name":"Cool Guitar","duration":27},{"id":938588,"name":"Guitar Tone","duration":9},{"id":1325977,"name":"Cool Guitar Mix","duration":27},{"id":221831,"name":"Hard Rock","duration":29},{"id":1016802,"name":"Teenmar Guitar","duration":18},{"id":249119,"name":"Trigun Blues N Jazz","duration":25},{"id":238291,"name":"Super Mario Guitar","duration":29},{"id":797362,"name":"Soft Guitar","duration":14},{"id":1212051,"name":"Electric Guitar","duration":1},{"id":231177,"name":"Versus","duration":8},{"id":76532,"name":"mix 103","duration":28},{"id":929495,"name":"Pani Da Guitar","duration":13},{"id":209651,"name":"Fast Guitar","duration":24},{"id":1011856,"name":"Nice Guitar","duration":18},{"id":1279012,"name":"Romantic Guitar","duration":25},{"id":778511,"name":"Kites","duration":25},{"id":210516,"name":"Romantic Guitar","duration":20},{"id":1044047,"name":"flamenco","duration":3},{"id":998131,"name":"Guitar Sound","duration":28},{"id":825533,"name":"Instrumental","duration":10},{"id":786538,"name":"Fifa 2010 Guitar","duration":8},{"id":1346278,"name":"Guitar-strings Cool","duration":23},{"id":959629,"name":"Aedunnamed","duration":28},{"id":47699,"name":"Mexican guitar","duration":28},{"id":115970,"name":"Best Guitar","duration":26},{"id":1022767,"name":"Best Guitar 2014","duration":19},{"id":1213495,"name":"Hum Kisise Kum Nahi","duration":13},{"id":1145917,"name":"Mercury Guitar","duration":29},{"id":1198863,"name":"To Phir Ao Guitar","duration":29},{"id":45789,"name":"Goodbye Alone","duration":29},{"id":996938,"name":"Nokia Guitar Best","duration":8},{"id":1031416,"name":"Whistler SMS 2014","duration":7},{"id":189524,"name":"Nice Guitar Tone","duration":29},{"id":1246933,"name":"Romantic","duration":29},{"id":153805,"name":"Guitar Modern","duration":27},{"id":793977,"name":"Ajeeb Dastan Hai Ye","duration":26},{"id":863008,"name":"S  R","duration":7},{"id":1243116,"name":"Guitar Kangana","duration":29},{"id":227641,"name":"Trololo Guitar","duration":17},{"id":1275533,"name":"Clockworks","duration":19},{"id":103209,"name":"Special Guitar","duration":28},{"id":978483,"name":"Challa Guitar","duration":28},{"id":1107360,"name":"RB Guitar Ringtone","duration":28},{"id":18141,"name":"Best Guitar","duration":27},{"id":842875,"name":"Bewafa","duration":17},{"id":242814,"name":"New Love Tone","duration":20},{"id":1313453,"name":"Heavy Guitar","duration":18},{"id":776247,"name":"Guitar Tone 2010","duration":26},{"id":1363460,"name":"Best Guitar-kites","duration":17},{"id":853292,"name":"Bodyguard Guitars","duration":29},{"id":857053,"name":"Awesome Guitar","duration":18},{"id":909624,"name":"Guitar Classic","duration":22},{"id":211885,"name":"Electric Guitar","duration":29},{"id":1305656,"name":"Guitar","duration":28},{"id":1165533,"name":"acoustic guitar","duration":29},{"id":351737,"name":"Varanamayiram Guitar","duration":21},{"id":777361,"name":"Rocking Guitar","duration":28},{"id":829059,"name":"Tata Nano New Ad","duration":29},{"id":909132,"name":"Godfather Guitar 12","duration":12},{"id":104815,"name":"Guitar Solo","duration":29},{"id":1178209,"name":"Death Note Guitar","duration":6},{"id":988003,"name":"Rugby Rock Anthem 1","duration":29},{"id":295546,"name":"Nescafe 007","duration":27},{"id":828443,"name":"2011 Romantic Tone","duration":28},{"id":18836,"name":"Smoke On The Water","duration":24},{"id":53813,"name":"walc wiede\u00c3\u2026\u00e2\u20ac\u017eski","duration":27},{"id":1273153,"name":"After The Rain","duration":27},{"id":340642,"name":"Ddlj Guitar","duration":21},{"id":275686,"name":"Bass Guitar","duration":27},{"id":998670,"name":"Beautiful Guitar","duration":27},{"id":1214013,"name":"Despardo","duration":29},{"id":275582,"name":"Shock Me","duration":28},{"id":816733,"name":"Best Of Guitar Tone","duration":20},{"id":233512,"name":"One Missed Call","duration":26},{"id":992083,"name":"Aozora Guitar","duration":10},{"id":6727,"name":"Rhythm Of Love","duration":29},{"id":383057,"name":"Avag Guitar","duration":18},{"id":100073,"name":"Wana be Free","duration":29},{"id":248787,"name":"Endhiran Climax","duration":29},{"id":275879,"name":"Guitar Solo","duration":23},{"id":1345111,"name":"Cool Guitar","duration":28},{"id":883679,"name":"Guitar Melody","duration":28},{"id":785846,"name":"Naatho Raa","duration":13},{"id":941185,"name":"Bfh National Guitar","duration":9},{"id":156012,"name":"La Cumparsita","duration":29},{"id":1314125,"name":"Guitar Boggie","duration":29},{"id":81533,"name":"Jadugari  Guitar 2011 - Dil to Baccha ha","duration":17},{"id":1016958,"name":"Titanic Guitar","duration":28},{"id":864718,"name":"Jaane Q Log Old Gtar","duration":28},{"id":831838,"name":"Tere Bin Guitar","duration":29},{"id":971440,"name":"Melodic Guitar","duration":17},{"id":342812,"name":"Classic Guitar","duration":29},{"id":1042330,"name":"ultmate guitar","duration":25},{"id":379559,"name":"Persian Guitar","duration":28},{"id":279150,"name":"Love Guitar","duration":27},{"id":384392,"name":"Guitar No-1 Effects","duration":28},{"id":66841,"name":"Marmalade","duration":29},{"id":188505,"name":"Beautiful Guitar","duration":28},{"id":253594,"name":"Romantic Dance","duration":27},{"id":254600,"name":"Guitar Electron","duration":23},{"id":865052,"name":"Gangster Guitar","duration":23},{"id":848806,"name":"Romantic Joy Guitar","duration":9},{"id":823195,"name":"Great Guitar","duration":19},{"id":1017311,"name":"Romantic Guitar","duration":3},{"id":231914,"name":"Best Guitar Ton 2009","duration":26},{"id":217463,"name":"Heavy Metal","duration":19},{"id":1253218,"name":"Evil Sms","duration":9},{"id":943563,"name":"Aisi Deewangi Guitar","duration":28},{"id":1336434,"name":"Tone","duration":18},{"id":46898,"name":"The Siren of the woods","duration":29},{"id":779617,"name":"Flute Guitar Rhythm","duration":23},{"id":234953,"name":"Metal","duration":13},{"id":236902,"name":"Warcry-hoy Gano Yo","duration":29},{"id":1320339,"name":"Dream Guitar","duration":28},{"id":221406,"name":"Bulgar","duration":29},{"id":356346,"name":"Sutta Guitar","duration":29},{"id":1223609,"name":"Cool Acoustic Guitar","duration":19},{"id":114170,"name":"Guitar Will Fly","duration":19},{"id":89327,"name":"Guitar","duration":12},{"id":255540,"name":"Flying Guitar","duration":29},{"id":47387,"name":"Romantic Guitar","duration":12},{"id":1250271,"name":"Roboflow","duration":4},{"id":1356928,"name":"New 2010 Guitar","duration":20},{"id":243133,"name":"Alone","duration":5},{"id":342952,"name":"Bansuri Nice","duration":29},{"id":939203,"name":"Magic Guitar","duration":29},{"id":1229213,"name":"Khudaya Khair Guitar","duration":22},{"id":888831,"name":"Mrf Guitar","duration":19},{"id":1039753,"name":"Dangler Riff","duration":16},{"id":845430,"name":"Romantic Instrument","duration":29},{"id":298464,"name":"Thebestguitartone","duration":26},{"id":7890,"name":"Dream Theater Through her eyes (petrucci","duration":27},{"id":285673,"name":"Ek Pal Ka Jeena Inst","duration":20},{"id":934348,"name":"Guitar Mix Cool","duration":23},{"id":237648,"name":"Greatest Guitar Solo","duration":20},{"id":1086531,"name":"La-Cumparsita Remix","duration":28},{"id":1289695,"name":"Soft Guitar","duration":22}]}