{"queryTime":"0 Seconds","totalCount":"300","pageNumber":1,"perPage":200,"pageCount":200,"data":[{"id":1019982,"name":"Funny Chicken","duration":19},{"id":1146235,"name":"Morning plateau","duration":29},{"id":1179429,"name":"Knocked Out","duration":7},{"id":1238822,"name":"Dying Nokia","duration":13},{"id":1238825,"name":"Indian Nokia","duration":7},{"id":332420,"name":"Alarm Smurfs","duration":17},{"id":954127,"name":"Multi Alarm","duration":10},{"id":997598,"name":"Loud Wake Up Alarm","duration":22},{"id":1335759,"name":"Ambulance Alarm","duration":18},{"id":824333,"name":"Car Alarm","duration":9},{"id":1014054,"name":"Coo Coo","duration":6},{"id":331857,"name":"Insane Tone","duration":17},{"id":950485,"name":"Incoming Message","duration":5},{"id":880590,"name":"Worst Alarm Ever","duration":29},{"id":1089756,"name":"KickAssTone","duration":28},{"id":787633,"name":"Aline Aleart","duration":12},{"id":849418,"name":"Morning Alarm 2","duration":19},{"id":785528,"name":"Funny Car Alarm","duration":9},{"id":849130,"name":"Monkey Message","duration":3},{"id":82944,"name":"Alarm","duration":22},{"id":279943,"name":"Wake Up","duration":25},{"id":932620,"name":"Funny Alarm Tone","duration":27},{"id":1046814,"name":"Alarm","duration":2},{"id":1235208,"name":"Car Alarm","duration":26},{"id":906951,"name":"Wakeup","duration":5},{"id":312477,"name":"Morning Alarm","duration":19},{"id":832197,"name":"Husband Alert","duration":12},{"id":913917,"name":"Baby Momma Alarm","duration":11},{"id":867490,"name":"Squeaky Deaky","duration":28},{"id":1237869,"name":"Coo Coo","duration":2},{"id":836396,"name":"Car Alarm","duration":28},{"id":1324821,"name":"Cute Funny Alarm","duration":9},{"id":1003811,"name":"Funny Alarm","duration":15},{"id":1151444,"name":"Sweet Child Piano","duration":16},{"id":1217186,"name":"Morning Alarm","duration":2},{"id":44138,"name":"Air Raid Siren","duration":23},{"id":197763,"name":"Dethklok Got Balls","duration":2},{"id":947355,"name":"Can You Hear Me Now","duration":28},{"id":988367,"name":"Alarm Sound Funny","duration":11},{"id":1233039,"name":"Car Alarm","duration":1},{"id":1306834,"name":"Alarm Funny","duration":16},{"id":57050,"name":"Angry  Wake Up","duration":7},{"id":985982,"name":"Best Alarm Sound","duration":29},{"id":384352,"name":"Car Alarm","duration":9},{"id":252468,"name":"Alarm","duration":23},{"id":1019201,"name":"Funny Alarm","duration":28},{"id":939254,"name":"Git Up","duration":10},{"id":892222,"name":"Buzzer Alarm","duration":1},{"id":951195,"name":"Annoying Rooster","duration":29},{"id":962178,"name":"Alarm","duration":16},{"id":812186,"name":"Dad Calling Alarm","duration":21},{"id":337030,"name":"Trompet","duration":9},{"id":1163868,"name":"Unenthusiastic Alarm","duration":15},{"id":1330734,"name":"Car Alarm","duration":11},{"id":870650,"name":"Alarm Tone","duration":23},{"id":379518,"name":"Arschloch Alarm","duration":7},{"id":384642,"name":"Funny Alarm Clock","duration":6},{"id":1155215,"name":"Cuckoo Clock Alarm","duration":30},{"id":1043109,"name":"Wake Up Cool Alarm","duration":26},{"id":1209589,"name":"Funny Alarm","duration":7},{"id":1149858,"name":"Piano Heaven","duration":30},{"id":368159,"name":"Wanker","duration":6},{"id":368402,"name":"You Make Me","duration":27},{"id":1337547,"name":"Air Horn","duration":1},{"id":250865,"name":"The Farts","duration":4},{"id":907085,"name":"Funny Alarm","duration":17},{"id":1190397,"name":"Wake Up","duration":12},{"id":1134735,"name":"cute sound","duration":11},{"id":64394,"name":"Alarm","duration":16},{"id":1142881,"name":"Start The Car","duration":7},{"id":1253143,"name":"Hen Alarm","duration":5},{"id":1323589,"name":"Car Alarm","duration":28},{"id":291055,"name":"Nokia Clarinet","duration":4},{"id":1130349,"name":"Your Bro Is Calling","duration":19},{"id":1160981,"name":"Blackmail Alarm","duration":30},{"id":1130351,"name":"Girlfriend Calling","duration":14},{"id":332875,"name":"Alarm Song","duration":29},{"id":993569,"name":"Asia Gong Funny","duration":3},{"id":778875,"name":"Alarm Digital","duration":1},{"id":849171,"name":"Funny Sms","duration":3},{"id":301716,"name":"Funny Chickens","duration":14},{"id":1230402,"name":"Xouzouris","duration":29},{"id":1332768,"name":"Alarm Clock","duration":5},{"id":75506,"name":"iPhone - Cool Sound best 2011","duration":30},{"id":1239318,"name":"Nokia Lamour","duration":29},{"id":345860,"name":"Alarm Chicken","duration":7},{"id":81934,"name":"best wake up alarm","duration":29},{"id":899186,"name":"Dingleberry","duration":17},{"id":1336526,"name":"Wakker Wordeh","duration":19},{"id":126202,"name":"Parent Alert","duration":12},{"id":1273252,"name":"Party Alaaaarm","duration":20},{"id":242843,"name":"Cool Alarm Tone","duration":6},{"id":1238827,"name":"Iraqi Nokia","duration":29},{"id":865028,"name":"Chicken Alarm Tune","duration":28},{"id":196946,"name":"Alarm Rythmic","duration":14},{"id":1320647,"name":"Alarm And Mom","duration":12},{"id":346924,"name":"Buzz Wrong","duration":2},{"id":1204052,"name":"Sms Yahoo","duration":3},{"id":785001,"name":"Funny Car Alarm","duration":28},{"id":1325107,"name":"Funny Car Alarm","duration":9},{"id":1310439,"name":"Car Alarm","duration":29},{"id":5630,"name":"Chicken alarm","duration":28},{"id":1202466,"name":"Clock And Mother","duration":12},{"id":969959,"name":"Android Alarm Sound","duration":12},{"id":849951,"name":"Funny Rintone","duration":7},{"id":952609,"name":"Terrible Alarm","duration":20},{"id":367735,"name":"English Language","duration":24},{"id":839539,"name":"Best Wake Up Alert","duration":3},{"id":962187,"name":"Burglar Alarm","duration":17},{"id":117543,"name":"Wake Up - Laugt","duration":7},{"id":975308,"name":"Alarm","duration":15},{"id":1159841,"name":"HURRY UP","duration":1},{"id":293641,"name":"Coolest Alarm","duration":19},{"id":1164867,"name":"WakeUp-Alarm-2017","duration":15},{"id":82946,"name":"High Frequency","duration":15},{"id":1004438,"name":"3d Alarm Samsung2013","duration":27},{"id":1330899,"name":"Fire Alarm","duration":7},{"id":997599,"name":"Clock Alert Classic","duration":16},{"id":33670,"name":"Car Alarm","duration":16},{"id":1277123,"name":"Cool Chicken Alarm","duration":5},{"id":157124,"name":"Nice Fart","duration":3},{"id":326385,"name":"Nutter Alert","duration":20},{"id":251615,"name":"Housekeeping","duration":18},{"id":957569,"name":"Im Going Home","duration":3},{"id":291426,"name":"Funny Wake Up","duration":15},{"id":910089,"name":"Funny Car Alarm","duration":9},{"id":378607,"name":"Very Funny Alarm","duration":9},{"id":1200252,"name":"Scream Alarm","duration":7},{"id":942164,"name":"Funny-alarm-tone","duration":27},{"id":1037270,"name":"Alarm clock boly no1","duration":28},{"id":1157052,"name":"DJ VIEW - TOASTED","duration":30},{"id":988365,"name":"Best Alarm Sound 12","duration":5},{"id":1029269,"name":"Funny Alarm","duration":15},{"id":997601,"name":"Horror Alert Funny","duration":17},{"id":917676,"name":"Alert","duration":3},{"id":1039472,"name":"Cookoo-Clock-Alarm","duration":28},{"id":1238818,"name":"Doggy Nokia","duration":4},{"id":1246732,"name":"Danger - Sms","duration":14},{"id":1285428,"name":"Urgence Alarms","duration":10},{"id":1084953,"name":"SCREAMO GIRL SINGING","duration":26},{"id":287430,"name":"Wake-up Alarm","duration":7},{"id":880523,"name":"Moveitorloseit-alarm","duration":12},{"id":1084954,"name":"screamo girl","duration":27},{"id":1237866,"name":"Funny Alarm","duration":7},{"id":1238840,"name":"Iranian Nokia","duration":7},{"id":1336529,"name":"Wakker Worduh","duration":19},{"id":950471,"name":"Wake Up Wake Up","duration":19},{"id":262184,"name":"Best Funny Iphone","duration":9},{"id":346559,"name":"Phone Call","duration":5},{"id":843531,"name":"Mobile Virus","duration":12},{"id":1343134,"name":"Rooster","duration":3},{"id":820054,"name":"Warning Warning","duration":26},{"id":997445,"name":"Beautiful Alarm Tone","duration":25},{"id":947358,"name":"Most Annoying Tone","duration":21},{"id":1183344,"name":"Car Alarm","duration":29},{"id":822481,"name":"Siren","duration":3},{"id":871404,"name":"Best Alarm 2011","duration":29},{"id":1150285,"name":"Broforce 3-2-1 Alarm","duration":8},{"id":324847,"name":"300 Text Alert","duration":2},{"id":1268877,"name":"Car Alarm","duration":2},{"id":363142,"name":"Car Alarm 2010","duration":28},{"id":1007002,"name":"Funny Alarm Tone","duration":28},{"id":330139,"name":"Annoying Alarm Tone","duration":27},{"id":1176836,"name":"Old Police Siren","duration":7},{"id":976518,"name":"Funny Alarm","duration":27},{"id":844777,"name":"Best Alarm Tone","duration":29},{"id":346146,"name":"Cloc Alarm","duration":5},{"id":903349,"name":"Funny Alarm Tone","duration":27},{"id":253333,"name":"Chicken Alarm","duration":19},{"id":205656,"name":"Rooster Alarm","duration":8},{"id":838342,"name":"Alarmfunny","duration":16},{"id":1250275,"name":"The Wife","duration":20},{"id":4662,"name":"Wake Up Wake Up","duration":22},{"id":803074,"name":"Car Alarm","duration":1},{"id":1004956,"name":"Funny Clock Alarm S3","duration":27},{"id":291090,"name":"Mexican Alarm Clock","duration":7},{"id":957571,"name":"Very Funny","duration":29},{"id":1215107,"name":"6oo6 6ooo6","duration":29},{"id":290671,"name":"Smoke Alarm","duration":29},{"id":1208340,"name":"Siren","duration":17},{"id":979521,"name":"Trr Trrrr","duration":12},{"id":1238080,"name":"Wake Up Alarm 2","duration":6},{"id":12795,"name":"Idea Police Message","duration":21},{"id":346078,"name":"Rrrring","duration":23},{"id":292821,"name":"Funny Alarm","duration":7},{"id":919515,"name":"Funny Ringtone","duration":23},{"id":849128,"name":"Cat Alarm","duration":6},{"id":951189,"name":"Annoying Alarm","duration":21},{"id":1239523,"name":"Sci Fi Alarm","duration":7},{"id":153025,"name":"Advt Funny Song","duration":28},{"id":336431,"name":"Wake Up Lol","duration":17},{"id":345475,"name":"Unknown Caller Ring","duration":20},{"id":1147207,"name":"Wang - Chick alarm","duration":18},{"id":330217,"name":"Alarm","duration":3},{"id":788533,"name":"Alarm 2 Funny","duration":6},{"id":367885,"name":"Good Morning Song","duration":11},{"id":950472,"name":"Messaaage","duration":4},{"id":829276,"name":"Car Alarm","duration":29},{"id":173236,"name":"Morning Alarm Mix","duration":19},{"id":779023,"name":"Podem","duration":10}]}