{"queryTime":"0 Seconds","totalCount":2771,"pageNumber":1,"perPage":200,"pageCount":200,"data":[{"id":309873,"name":"Msg From God","duration":4},{"id":310871,"name":"Hey Beautiful","duration":5},{"id":1241848,"name":"Sms Fun 2009","duration":1},{"id":847767,"name":"Request Rap","duration":28},{"id":100726,"name":"U RING.....","duration":2},{"id":263432,"name":"New Funny Sms","duration":4},{"id":839539,"name":"Best Wake Up Alert","duration":3},{"id":211608,"name":"Cat Sms","duration":1},{"id":1209397,"name":"Dring Doing","duration":3},{"id":291532,"name":"Text Message","duration":1},{"id":832176,"name":"Rejected","duration":9},{"id":1238840,"name":"Iranian Nokia","duration":7},{"id":1266367,"name":"Intel Sms","duration":3},{"id":1013702,"name":"You Sit On The Compu","duration":4},{"id":1330495,"name":"Funnyanswerer","duration":21},{"id":1311128,"name":"Titanic Mix","duration":27},{"id":72055,"name":"Sleeping Bunny","duration":7},{"id":1176055,"name":"Check Mailbox","duration":6},{"id":1247709,"name":"Baby Laugh Origional","duration":4},{"id":1227743,"name":"Sms Water Fall","duration":5},{"id":923776,"name":"Nokia Horror Message","duration":7},{"id":1280491,"name":"Sms Tone","duration":6},{"id":310980,"name":"Funny Sms","duration":13},{"id":1253791,"name":"Funny Sms","duration":4},{"id":168733,"name":"Very Funny Msg Tone","duration":12},{"id":277646,"name":"Buuu","duration":4},{"id":202151,"name":"Angry Birds Sms","duration":1},{"id":1255313,"name":"Funny Sms","duration":4},{"id":828450,"name":"Funny Romantic Tone","duration":11},{"id":377016,"name":"Simpletone Sms","duration":5},{"id":852757,"name":"Natsu","duration":2},{"id":1294819,"name":"Kuzja Univer","duration":11},{"id":292271,"name":"Egypt Sms","duration":14},{"id":1213166,"name":"Zorba Sms","duration":7},{"id":1213775,"name":"Funny Space","duration":3},{"id":1247980,"name":"Morph From Take Hear","duration":6},{"id":184903,"name":"Mr Bean Msg Funny","duration":6},{"id":886927,"name":"Funnycartoonsms14","duration":2},{"id":1333999,"name":"Sms Trick","duration":3},{"id":1155573,"name":"Bing Bum Whatsapp","duration":17},{"id":1208744,"name":"Glass Wala Wala","duration":28},{"id":1295734,"name":"Funny Sms","duration":16},{"id":881032,"name":"Class Ria","duration":27},{"id":815235,"name":"Sms Torn Paper","duration":4},{"id":1325253,"name":"Police Remix Sms","duration":10},{"id":824981,"name":"Funny Text Sms 2011","duration":2},{"id":1357435,"name":"Very Funny Sms 2010","duration":8},{"id":987044,"name":"Weeeeeee Funny Sms","duration":18},{"id":1245034,"name":"Leckmich Die Zitrone","duration":4},{"id":1247768,"name":"Frog - Zaba","duration":2},{"id":72056,"name":"Wahhhhh","duration":3},{"id":1107042,"name":"Text Message","duration":3},{"id":8025,"name":"Fun SMS 3","duration":2},{"id":1207679,"name":"Sms Tone","duration":19},{"id":1037273,"name":"Funny SMS Sound","duration":6},{"id":1244728,"name":"Ooooobbbjjjeeezus","duration":3},{"id":847944,"name":"Nokia Vocal Remix","duration":29},{"id":264540,"name":"Foca - Avp","duration":2},{"id":828434,"name":"Funny Sms 2011","duration":17},{"id":33578,"name":"Bomb SMS","duration":5},{"id":1326638,"name":"My Secrets","duration":14},{"id":1276684,"name":"Funny Sms","duration":7},{"id":796698,"name":"Chicken Song","duration":19},{"id":785415,"name":"Bing Bing","duration":8},{"id":1190961,"name":"Hey Psst","duration":1},{"id":813272,"name":"Superphone","duration":9},{"id":1019205,"name":"Monkey Funny Sound","duration":15},{"id":827565,"name":"Funny Sms","duration":7},{"id":1178988,"name":"Moskva","duration":16},{"id":265709,"name":"Detective Sms","duration":4},{"id":828448,"name":"2011 Soft Sms","duration":4},{"id":793450,"name":"Funny Sms 2010","duration":11},{"id":785012,"name":"Funny Sms","duration":5},{"id":1175769,"name":"Sneeze Funny","duration":9},{"id":1264484,"name":"Glass","duration":24},{"id":313822,"name":"Kodumai Sir","duration":2},{"id":830190,"name":"Wicked Sms","duration":5},{"id":1236603,"name":"Waring Its The Wife","duration":20},{"id":1250431,"name":"Cartoons Sms 2009","duration":6},{"id":1196935,"name":"Arnold Govenator","duration":5},{"id":779832,"name":"Most Funny Sms","duration":3},{"id":252101,"name":"Sneeze Sms","duration":1},{"id":872325,"name":"Funny Sms","duration":13},{"id":1235564,"name":"300 Sms","duration":2},{"id":913456,"name":"Sms Ibing","duration":8},{"id":778081,"name":"Alarm - Sms","duration":4},{"id":1175565,"name":"Adrenalin","duration":2},{"id":793714,"name":"Gsm Distortion","duration":3},{"id":1295696,"name":"Sms Sms Sms","duration":7},{"id":885907,"name":"Crazy Sms","duration":7},{"id":1264904,"name":"Sticky Kiss Sms","duration":4},{"id":1209976,"name":"Sms Whistle","duration":2},{"id":1175406,"name":"Fart Technotone","duration":12},{"id":1326172,"name":"Fng Message","duration":1},{"id":1332812,"name":"Koi Is Chaman","duration":2},{"id":1268008,"name":"Whistle Sms","duration":1},{"id":827844,"name":"Fuuny Dabangg Tone","duration":26},{"id":195289,"name":"Funny Sms","duration":13},{"id":1179873,"name":"Kuroneko No Tango","duration":29},{"id":1205523,"name":"Lost Phone","duration":13},{"id":1218816,"name":"Sms Take It","duration":4},{"id":1316810,"name":"Sms Tone Sms","duration":23},{"id":1349457,"name":"Funny Hindi Song -h-","duration":20},{"id":346804,"name":"Vadivel Comedy","duration":2},{"id":1298265,"name":"Sms Stolen","duration":7},{"id":807251,"name":"Funny Drop Sms","duration":3},{"id":33699,"name":"fun message","duration":4},{"id":253085,"name":"Funny Sms","duration":7},{"id":1185194,"name":"Counter Strike","duration":27},{"id":826393,"name":"Bust Funny Sms 2011","duration":8},{"id":891971,"name":"Hbscoobyhehe","duration":1},{"id":935176,"name":"Ui Ui Ui Sms","duration":4},{"id":262272,"name":"Sms Funny","duration":25},{"id":892822,"name":"Duduk Zurna Armenin","duration":13},{"id":1362478,"name":"Funny Sms Tone","duration":5},{"id":1334000,"name":"Sms From God","duration":4},{"id":779024,"name":"Sms","duration":6},{"id":1174579,"name":"Sms","duration":1},{"id":826170,"name":"3d 2011 Bass Remix","duration":28},{"id":806501,"name":"Funny Sms Laughing","duration":12},{"id":999176,"name":"Hur  Funny","duration":2},{"id":932520,"name":"A Msg 4 U Darling","duration":4},{"id":1239738,"name":"Horror Sms","duration":4},{"id":347403,"name":"Slide Whistle","duration":3},{"id":929801,"name":"Baby Sms","duration":3},{"id":1269526,"name":"Funny Duck","duration":28},{"id":1237692,"name":"Most Latest Sms 2009","duration":4},{"id":1019209,"name":"Whistling","duration":20},{"id":814905,"name":"Airtel Text","duration":7},{"id":1244133,"name":"Funny Whistle","duration":2},{"id":1208505,"name":"Pick Up The Phone","duration":15},{"id":1173074,"name":"Hello Careverga","duration":15},{"id":1204537,"name":"Napokon Sms","duration":3},{"id":1217517,"name":"Crazy Ringtone","duration":14},{"id":1215302,"name":"Funny Sms","duration":7},{"id":868341,"name":"La Chiripiorca","duration":1},{"id":929782,"name":"Doramon Sms","duration":9},{"id":839285,"name":"Idiot Calling","duration":3},{"id":808753,"name":"Mosquito","duration":3},{"id":376726,"name":"Ada Sms","duration":5},{"id":845996,"name":"Funny Ring Tone","duration":4},{"id":1131857,"name":"Clapping tone","duration":8},{"id":346099,"name":"Anjathey Sms","duration":6},{"id":1204051,"name":"Evil Homer 2008","duration":3},{"id":913386,"name":"Aaaa","duration":2},{"id":801576,"name":"Auto O Auto","duration":3},{"id":817146,"name":"Funny Sms Tone","duration":4},{"id":1358296,"name":"Funny Sms","duration":1},{"id":1227339,"name":"Funny Yahoo Sms","duration":3},{"id":211286,"name":"Mail Motherfuker","duration":1},{"id":794616,"name":"Formula1","duration":5},{"id":1171988,"name":"Mr Meeseeks SMS","duration":1},{"id":785537,"name":"Horror Funny","duration":6},{"id":787008,"name":"Funny Sms","duration":13},{"id":1299597,"name":"Whoomp There It Is","duration":22},{"id":830162,"name":"Very Very Funny","duration":3},{"id":950965,"name":"Sneeze Tone New","duration":1},{"id":1217519,"name":"Sms Electro","duration":5},{"id":311221,"name":"Funny Sms","duration":9},{"id":1289211,"name":"Donky","duration":8},{"id":1007351,"name":"Funny S M S - A B","duration":9},{"id":913314,"name":"Idiot Calling","duration":3},{"id":830165,"name":"Read Your Text","duration":8},{"id":1216244,"name":"Funny Dog Sms Tone","duration":5},{"id":1217718,"name":"Funny Sms Tone","duration":5},{"id":1354613,"name":"Funny 2010 Sms","duration":4},{"id":809741,"name":"Msg On Screen","duration":4},{"id":814225,"name":"Cow Sms","duration":6},{"id":251821,"name":"Cat And Dog Remix","duration":29},{"id":845995,"name":"Funny Ring Tone","duration":4},{"id":313126,"name":"Funny Sms","duration":7},{"id":63229,"name":"Applause Funny Ringtone HTC","duration":30},{"id":304985,"name":"Worms Sms","duration":3},{"id":1350744,"name":"Funny","duration":5},{"id":1189029,"name":"Hello","duration":20},{"id":1198121,"name":"Idiot Sms","duration":3},{"id":836804,"name":"Very Funny Sms","duration":7},{"id":162477,"name":"Funny Sms","duration":9},{"id":265818,"name":"Funny Sms","duration":17},{"id":886780,"name":"Funny Cartoon Sms 6","duration":1},{"id":1333822,"name":"Piano Sms","duration":9},{"id":376584,"name":"Soooo Important","duration":6},{"id":832166,"name":"Epic Dude","duration":3},{"id":1337771,"name":"Funny Sms","duration":4},{"id":33675,"name":"SMS-Transformers","duration":9},{"id":1176618,"name":"Funny Karate","duration":12},{"id":991493,"name":"Angry Bird Gameplay","duration":9},{"id":1173775,"name":"Stupid Sms","duration":5},{"id":1301440,"name":"Crazy Sms","duration":7},{"id":1360927,"name":"Lethal Energy - Rc W","duration":29},{"id":1175126,"name":"Smsshot","duration":2},{"id":1150992,"name":"Coin - Sms","duration":1},{"id":962852,"name":"Cute Sms","duration":4},{"id":328207,"name":"Funny Message Alert","duration":17},{"id":1267502,"name":"Hi5","duration":3},{"id":821128,"name":"Best Funny Sms","duration":3},{"id":830598,"name":"Beshuba","duration":24},{"id":1307717,"name":"Funny Sms Mehehe","duration":16},{"id":293513,"name":"Sms Arrived","duration":3},{"id":1354257,"name":"Funny Sms","duration":8}]}