{"queryTime":"0 Seconds","totalCount":1117,"pageNumber":1,"perPage":200,"pageCount":200,"data":[{"id":1179748,"name":"Dodge This","duration":3},{"id":331794,"name":"Shot","duration":1},{"id":875769,"name":"Troopers Forever","duration":13},{"id":1086894,"name":"machine gun sound","duration":14},{"id":1139938,"name":"shooting sound","duration":3},{"id":941326,"name":"Mensaje De Disparo","duration":2},{"id":817715,"name":"Gun Shot","duration":1},{"id":1330751,"name":"Gun Shot","duration":3},{"id":801122,"name":"Gun Shot","duration":2},{"id":944163,"name":"Gun Shot","duration":3},{"id":5790,"name":"Gun(M14)","duration":1},{"id":234373,"name":"Lee Hom","duration":22},{"id":1232452,"name":"Gunshot 4","duration":5},{"id":895304,"name":"Cs Follow Me","duration":1},{"id":1123541,"name":"AK47 auto fire","duration":1},{"id":1354955,"name":"Gun Shots New","duration":9},{"id":1123702,"name":"Machine gun","duration":1},{"id":1185972,"name":"Counter Strike","duration":12},{"id":919694,"name":"9mm Gun","duration":7},{"id":818948,"name":"Gun New 9mm","duration":7},{"id":930002,"name":"Dbl Gun Dbl Funn","duration":2},{"id":827820,"name":"Gun Text","duration":2},{"id":827203,"name":"Gun Shot","duration":2},{"id":1204044,"name":"Infanterie Schuempfe","duration":29},{"id":1330538,"name":"Sholay-mouthgun","duration":29},{"id":873190,"name":"Air Impact Gun","duration":1},{"id":802106,"name":"Cs - Gun Sounds 1","duration":29},{"id":329310,"name":"Machine Gun","duration":25},{"id":362146,"name":"Best Gun Shot Sms","duration":2},{"id":987528,"name":"Single Shot","duration":1},{"id":1362517,"name":"Bass Gun Beat","duration":23},{"id":5288,"name":"gun 33 alert","duration":4},{"id":44992,"name":"AK 47","duration":19},{"id":1362665,"name":"Cod Gun Snds  300kb","duration":18},{"id":364405,"name":"Ak47 9mm Gunshot","duration":27},{"id":1185582,"name":"Shot Sms","duration":7},{"id":1228325,"name":"Gunshot 3","duration":1},{"id":1177656,"name":"M46","duration":7},{"id":1177858,"name":"Gun Shots","duration":9},{"id":830056,"name":"Verdict","duration":3},{"id":908609,"name":"Mg42","duration":3},{"id":326088,"name":"Ak-47","duration":5},{"id":902949,"name":"Hide The Gun","duration":14},{"id":329742,"name":"Weapon","duration":9},{"id":1349489,"name":"Aug","duration":1},{"id":793510,"name":"Machine Gun","duration":1},{"id":1177655,"name":"M249","duration":13},{"id":80364,"name":"gun shot","duration":22},{"id":1360232,"name":"Ak 56","duration":6},{"id":977860,"name":"Gun Message","duration":2},{"id":1345090,"name":"Gun","duration":5},{"id":291277,"name":"Rifle And Gun","duration":6},{"id":328494,"name":"Sniperrifleh","duration":3},{"id":892928,"name":"Fire Shot Tone","duration":2},{"id":1356425,"name":"Gun Master G 9","duration":29},{"id":250306,"name":"Painting The Guns","duration":7},{"id":313840,"name":"Gun Shots","duration":4},{"id":330325,"name":"Shotgun Barrage","duration":9},{"id":314048,"name":"9mm Gun Sms","duration":7},{"id":1186811,"name":"Ultimate Gun Riot","duration":17},{"id":372660,"name":"Machine Gun Sms","duration":29},{"id":1214573,"name":"Gun","duration":2},{"id":267020,"name":"M16a2 Shots","duration":3},{"id":1334126,"name":"Bullets Firing","duration":11},{"id":1321963,"name":"Gun Effect 2","duration":21},{"id":1039221,"name":"Charging an M4 rifle","duration":4},{"id":814125,"name":"Gun Shots Remix","duration":27},{"id":45118,"name":"Machine Gun","duration":19},{"id":1177111,"name":"Death In The Jungle","duration":23},{"id":296923,"name":"Call Of Duty Guns","duration":26},{"id":791957,"name":"Gun Shot","duration":4},{"id":1312034,"name":"Shotgun Sound","duration":2},{"id":1121264,"name":"Shooting","duration":7},{"id":1280492,"name":"Niche","duration":29},{"id":1237433,"name":"Head Shot","duration":4},{"id":1114121,"name":"Culling - AlarmGun","duration":29},{"id":912827,"name":"Shot","duration":2},{"id":815010,"name":"Gun  Rapidfire","duration":4},{"id":200918,"name":"Gun Shoot","duration":9},{"id":1219843,"name":"Laser 1","duration":4},{"id":6003,"name":"AK47","duration":19},{"id":313560,"name":"Weapon Ultimate Sms","duration":18},{"id":1321974,"name":"Gun Effect 4","duration":28},{"id":822810,"name":"9mm Gun Sms","duration":7},{"id":44539,"name":"Machine Gun","duration":19},{"id":1236227,"name":"Gun Machine","duration":21},{"id":1330065,"name":"Taser- Not The Song","duration":1},{"id":1221145,"name":"Shotgun","duration":3},{"id":162473,"name":"8mm","duration":5},{"id":942704,"name":"Bullet Firing","duration":18},{"id":1174343,"name":"Gun Laser","duration":5},{"id":850158,"name":"Gunshoth","duration":4},{"id":852045,"name":"Isoaker App Text Ton","duration":1},{"id":848334,"name":"Terrrorism Sms","duration":5},{"id":851021,"name":"Top Gun Notification","duration":1},{"id":938098,"name":"9 Mm Gun","duration":7},{"id":1353217,"name":"Gun Mix","duration":2},{"id":1298408,"name":"Machine Gun","duration":5},{"id":823343,"name":"Gunshot","duration":7},{"id":29382,"name":"my gun","duration":24},{"id":135584,"name":"Gun Lae Gun","duration":29},{"id":976880,"name":"Iphone Vs Machinegun","duration":19},{"id":1208579,"name":"Machine Gun Shots","duration":12},{"id":960606,"name":"50cal Sniper","duration":3},{"id":1205989,"name":"Machine Gun","duration":17},{"id":384560,"name":"Assault Rifle","duration":16},{"id":1349744,"name":"Fire War","duration":9},{"id":218461,"name":"Saving Private Ryan","duration":29},{"id":1323695,"name":"Machine Gunzz","duration":20},{"id":805892,"name":"Bullet Sms","duration":1},{"id":1220475,"name":"Gun Proton Failed","duration":2},{"id":789574,"name":"Gun N Bomb Sms","duration":4},{"id":225022,"name":"Machinegun","duration":2},{"id":12087,"name":"gun shoting new","duration":1},{"id":1100224,"name":"Shootings","duration":13},{"id":1085781,"name":"pistol reload","duration":1},{"id":1232290,"name":"Shotgun","duration":2},{"id":1088646,"name":"Stardust Eyes","duration":29},{"id":1353566,"name":"Three 10mm Gun Shots","duration":3},{"id":1329339,"name":"Sms Pak Gun","duration":2},{"id":901699,"name":"21 Guns Piano Cover","duration":23},{"id":796036,"name":"3gunshots Sms","duration":3},{"id":969752,"name":"460xvr","duration":9},{"id":97964,"name":"Gunshots","duration":9},{"id":1169727,"name":"Bang Lil","duration":1},{"id":878018,"name":"Gun2012","duration":2},{"id":1033717,"name":"Berreta","duration":1},{"id":356386,"name":"Need For Speed","duration":19},{"id":1203154,"name":"Machine Gun","duration":4},{"id":1174948,"name":"Machine Gun","duration":2},{"id":843213,"name":"Gunshot Effect","duration":7},{"id":357235,"name":"Gun Jack Theme","duration":29},{"id":1264183,"name":"Shootgun","duration":6},{"id":1118175,"name":"Boktai 2","duration":1},{"id":310817,"name":"Gun Sms","duration":4},{"id":8024,"name":"Machine_Gun","duration":19},{"id":780476,"name":"Gun Shot","duration":1},{"id":1259840,"name":"Wheres My Money","duration":28},{"id":1183156,"name":"Machine Gun","duration":4},{"id":920361,"name":"Zombies","duration":29},{"id":385748,"name":"Gunshots","duration":9},{"id":793705,"name":"Machine Gun Sms","duration":1},{"id":385155,"name":"Ak47","duration":19},{"id":133813,"name":"Gun Shot","duration":2},{"id":1322582,"name":"Kim Gun Mo Unfaith","duration":28},{"id":177976,"name":"Wanted Vs Gun","duration":8},{"id":1102639,"name":"terminator 2","duration":12},{"id":1306555,"name":"Psycho","duration":22},{"id":367542,"name":"Kill The Kitty","duration":12},{"id":1187023,"name":"Gun Shot","duration":2},{"id":1272480,"name":"Firing","duration":15},{"id":1311676,"name":"Gun Tone","duration":9},{"id":362363,"name":"Ak 56","duration":6},{"id":1084553,"name":"Machine Gun Firing","duration":4},{"id":774942,"name":"Machine Gun New","duration":3},{"id":1025962,"name":"Top Gun classified","duration":2},{"id":1304374,"name":"Machine Gun","duration":1},{"id":811458,"name":"9mm Gun Sms","duration":7},{"id":913121,"name":"50 Cal","duration":8},{"id":235510,"name":"Da Gun Form 2","duration":24},{"id":931496,"name":"Gun Gun Guna Re Gana","duration":19},{"id":843280,"name":"Gun Shots","duration":4},{"id":241744,"name":"Shooting Gun","duration":4},{"id":379785,"name":"Awp Sniper","duration":1},{"id":1110806,"name":"Nerf Gun Goes Bang","duration":9},{"id":1269715,"name":"The Rising Tide","duration":29},{"id":992588,"name":"Gun Shoot","duration":19},{"id":1173645,"name":"Gun","duration":2},{"id":837192,"name":"Gun Trigger Sms V2","duration":1},{"id":812439,"name":"Dash Girl","duration":29},{"id":314382,"name":"Shot Sms","duration":4},{"id":304747,"name":"Guncock","duration":1},{"id":105252,"name":"Sniper Rifle","duration":4},{"id":197791,"name":"Gunshot","duration":2},{"id":146139,"name":"Gun","duration":7},{"id":837618,"name":"Machine Gun","duration":3},{"id":1208221,"name":"Electro Accordion","duration":11},{"id":189067,"name":"Shooting Gun","duration":4},{"id":1274847,"name":"2009 Blast","duration":3},{"id":979032,"name":"Gun Shot","duration":2},{"id":928322,"name":"Machine Gun","duration":4},{"id":1220468,"name":"Shotgun","duration":4},{"id":1321960,"name":"Gun Effect 1","duration":28},{"id":1208967,"name":"Hand Gun","duration":4},{"id":1125534,"name":"Machine Gun Kelly","duration":29},{"id":377725,"name":"3d Gun Shot Sms","duration":2},{"id":313703,"name":"Laser Gun","duration":2},{"id":1257705,"name":"Gunsound","duration":1},{"id":1190781,"name":"Elmos Got A Gun","duration":27},{"id":279243,"name":"50 Cal Sniper Shot","duration":1},{"id":868165,"name":"9mm Gun Sms","duration":7},{"id":1132638,"name":"Eptic","duration":29},{"id":45014,"name":"explosion 2","duration":7},{"id":331242,"name":"Ak 47","duration":19},{"id":888774,"name":"Lethal Weapon","duration":1},{"id":357338,"name":"Gun Silencer","duration":1},{"id":1185948,"name":"Shotgun Sms","duration":2},{"id":329584,"name":"Weaponz","duration":18},{"id":377185,"name":"9mm Gun Sms","duration":7},{"id":1173130,"name":"Gun Fire Sound","duration":4}]}