{"queryTime":"0 Seconds","totalCount":231,"pageNumber":1,"perPage":200,"pageCount":200,"data":[{"id":1260153,"name":"Nice Music","duration":22},{"id":353480,"name":"Oru Nanban","duration":29},{"id":906152,"name":"Love","duration":23},{"id":157445,"name":"Friendship -whistle","duration":29},{"id":86753,"name":"summer of 69","duration":18},{"id":882687,"name":"A Circle Of Friends","duration":29},{"id":996689,"name":"Bmo Friendship Song","duration":28},{"id":932959,"name":"Sometimes","duration":29},{"id":148379,"name":"Best Ringtone Ever","duration":15},{"id":76815,"name":"Boom My Heart RC Week 197","duration":29},{"id":1317846,"name":"Love","duration":21},{"id":858436,"name":"Airteltamil","duration":29},{"id":1123760,"name":"Tamil Deeyaalo","duration":16},{"id":94147,"name":"Body Talk","duration":30},{"id":1055159,"name":"Friendship","duration":22},{"id":987147,"name":"4 True Friendship","duration":22},{"id":847304,"name":"Friendship","duration":24},{"id":1261351,"name":"Pareethi Fav-1","duration":29},{"id":870494,"name":"What A Magical Place","duration":21},{"id":315867,"name":"Kadhal Kondein","duration":23},{"id":963517,"name":"Oh My Friend","duration":29},{"id":847499,"name":"Vadakku Vadakk-urumi","duration":29},{"id":858921,"name":"Party With Pinkie","duration":29},{"id":981138,"name":"Friendship","duration":28},{"id":254279,"name":"Mlp Intro Techno","duration":28},{"id":173694,"name":"Cuppy Cake","duration":8},{"id":1150631,"name":"FriendShip","duration":29},{"id":198172,"name":"A B C","duration":22},{"id":1134840,"name":"TTG PP Pegasus Music","duration":27},{"id":841205,"name":"Friendship","duration":28},{"id":926555,"name":"Friendship","duration":29},{"id":860087,"name":"Friendship Sms","duration":12},{"id":1309680,"name":"Tera Mera","duration":29},{"id":229785,"name":"Friendship Gift","duration":29},{"id":966322,"name":"Picture Perfect Pony","duration":28},{"id":915068,"name":"Okok Ringtone","duration":14},{"id":856486,"name":"Thalapathy","duration":29},{"id":131874,"name":"Friendship","duration":3},{"id":188106,"name":"8bit Art Of Thedress","duration":20},{"id":117437,"name":"Godfather Guitar","duration":29},{"id":1167287,"name":"gyspy bard","duration":30},{"id":837188,"name":"Natpukul","duration":29},{"id":354389,"name":"Mustafa","duration":18},{"id":285945,"name":"Friendship","duration":26},{"id":210012,"name":"Friend","duration":16},{"id":869488,"name":"Mlp Theme","duration":19},{"id":132847,"name":"Thalapathy","duration":22},{"id":131453,"name":"7b - Nai Nai Nai","duration":23},{"id":963530,"name":"New Tera Mera Hai","duration":29},{"id":249403,"name":"Been Dreamin","duration":22},{"id":113721,"name":"Yaro Freindship","duration":22},{"id":188074,"name":"8-bit Mlp Theme","duration":28},{"id":130963,"name":"Hakuna Matata","duration":3},{"id":121645,"name":"Friendship","duration":27},{"id":901493,"name":"Manassinnu Marayilla","duration":29},{"id":810633,"name":"Friendship Tone","duration":28},{"id":931770,"name":"Friendship","duration":22},{"id":882869,"name":"Friendship","duration":29},{"id":221834,"name":"Mustafa Mustafa","duration":29},{"id":1086131,"name":"Friendship","duration":22},{"id":43005,"name":"Nachange Sari Raat - Reel to Real Mix","duration":30},{"id":997717,"name":"Naan-friendship Tone","duration":29},{"id":288774,"name":"Jomy With Love","duration":29},{"id":216337,"name":"Friendship Theme","duration":31},{"id":62440,"name":"friends","duration":21},{"id":999465,"name":"Discord Fim 2","duration":1},{"id":354572,"name":"Friendship Tone","duration":29},{"id":230186,"name":"Friendship Gp","duration":29},{"id":952553,"name":"Friendship","duration":25},{"id":219502,"name":"Inidu Inidu","duration":21},{"id":909960,"name":"Pinkie Pie Giggle","duration":1},{"id":1155233,"name":"NANDHARE","duration":16},{"id":355062,"name":"Manasellam","duration":28},{"id":847305,"name":"Chennai 600028","duration":13},{"id":915603,"name":"Ahn","duration":28},{"id":859488,"name":"Friendship Sms","duration":12},{"id":891642,"name":"En Nanban","duration":28},{"id":990876,"name":"Gypsy Magic","duration":29},{"id":909916,"name":"What Is Friendship","duration":5},{"id":186359,"name":"Dil Chahta Hai","duration":29},{"id":963550,"name":"Bon-bon Ponyfield","duration":25},{"id":206752,"name":"Feel My Friendship","duration":29},{"id":883767,"name":"En Frienda Pola Yaar","duration":29},{"id":849968,"name":"Applejack Theme Fif","duration":28},{"id":310019,"name":"Friendship Cut Fun","duration":6},{"id":1147618,"name":"Hoodoo Voodoo","duration":3},{"id":136586,"name":"Hushnowquietnow 8bit","duration":15},{"id":1130108,"name":"Hard to be a friend","duration":29},{"id":344735,"name":"Najar Me Rehate Ho","duration":18},{"id":984927,"name":"Mlp-fire When Ready","duration":2},{"id":1105609,"name":"Friendship n Cookies","duration":28},{"id":889754,"name":"Ill Fly Higher","duration":29},{"id":98461,"name":"friendship","duration":29},{"id":889763,"name":"Equestria Girls","duration":29},{"id":981137,"name":"Friendship","duration":16},{"id":985661,"name":"Scootaloo","duration":3},{"id":905655,"name":"Mlp Smile Song Seg","duration":23},{"id":12747,"name":"friends","duration":27},{"id":963691,"name":"Oh My Friend","duration":29},{"id":870495,"name":"Thread By Thread","duration":27},{"id":777758,"name":"Yeti  Dheraii","duration":29},{"id":881991,"name":"My Little Pony","duration":29},{"id":80228,"name":"friendship","duration":9},{"id":155850,"name":"Friendship","duration":29},{"id":163705,"name":"Art Ofthe Dress 8bit","duration":15},{"id":869658,"name":"Friendship","duration":29},{"id":191137,"name":"Yari Ki Gadi","duration":28},{"id":207397,"name":"A Nice Friendship","duration":29},{"id":78764,"name":"summer of 69","duration":26},{"id":188087,"name":"8bitartofthedress2","duration":21},{"id":188297,"name":"Pinkie Pie Song","duration":21},{"id":163698,"name":"No Fear Song 8bit","duration":17},{"id":1226250,"name":"Rista Of Friend","duration":29},{"id":1029359,"name":"A True True Friend","duration":22},{"id":891674,"name":"Nanban-friendship","duration":28},{"id":188098,"name":"Art Of The Dress 3","duration":22},{"id":1105447,"name":"Friendship","duration":22},{"id":918390,"name":"Discord","duration":16},{"id":138638,"name":"Friendsskasccs","duration":26},{"id":123692,"name":"Friendship Tone","duration":25},{"id":869097,"name":"Oh Pinkie","duration":28},{"id":278729,"name":"Friendship","duration":26},{"id":1104721,"name":"E-Friendship 3","duration":7},{"id":1002039,"name":"Friendship-tone","duration":25},{"id":870490,"name":"New Lunar Replublic","duration":26},{"id":986139,"name":"Cheruchillayil 101","duration":18},{"id":995474,"name":"Kai Po Che","duration":16},{"id":876405,"name":"Friendship Song","duration":24},{"id":136532,"name":"Little Rascal","duration":29},{"id":255714,"name":"Jules","duration":27},{"id":102606,"name":"Katu Kuyilu","duration":29},{"id":326011,"name":"Jaane Kyun","duration":29},{"id":313708,"name":"Friendship","duration":20},{"id":1019521,"name":"Dj Pon-3 Bass Cannon","duration":28},{"id":917279,"name":"Rajini Friendship","duration":25},{"id":1261352,"name":"Pareethi Fav2","duration":29},{"id":870486,"name":"Waaiiit","duration":28},{"id":117432,"name":"The World Is Yours","duration":29},{"id":899415,"name":"Friendship Song","duration":22},{"id":1213331,"name":"Aiba - Friendship","duration":29},{"id":354608,"name":"Vtv","duration":27},{"id":1124175,"name":"Balling With BFF","duration":14},{"id":1148622,"name":"More we get together","duration":29},{"id":1122812,"name":"friendship","duration":17},{"id":850579,"name":"Har Ek Friend","duration":28},{"id":1124174,"name":"Best Friend Drinks","duration":12},{"id":1189677,"name":"Happy Frndship Day","duration":19},{"id":986155,"name":"Friendship Whistle","duration":10},{"id":136633,"name":"Winter Wrap Up 8bit","duration":16},{"id":881520,"name":"Friendship","duration":19},{"id":50337,"name":"Friendship","duration":26},{"id":351634,"name":"Docomo Friendship","duration":14},{"id":928516,"name":"Type Of Pony","duration":24},{"id":869474,"name":"Fluttershy - Yay","duration":1},{"id":66174,"name":"Take Me Away","duration":18},{"id":908639,"name":"Pinkies Lie Dubstep","duration":27},{"id":78957,"name":"friendship","duration":14},{"id":930223,"name":"Twilights Bbbff Seg","duration":29},{"id":170340,"name":"Lovelytone","duration":28},{"id":987599,"name":"Punjabi Love Song","duration":24},{"id":919316,"name":"Hush Now","duration":28},{"id":870492,"name":"Art Of The Dress","duration":25},{"id":189238,"name":"Friendship Is Magic","duration":29},{"id":921121,"name":"Orphanage Song","duration":21},{"id":254282,"name":"Tons Of Fun","duration":29},{"id":948666,"name":"Shayari Dosti","duration":10},{"id":865105,"name":"Beyond Her Garden","duration":27},{"id":1093907,"name":"FG Unleash The Magic","duration":18},{"id":141440,"name":"French Christmas","duration":29},{"id":863626,"name":"Friendship","duration":29},{"id":256034,"name":"Mlp Fim 8bit","duration":17},{"id":883577,"name":"Domzwodehaoxiongdi","duration":26},{"id":43847,"name":"Dosti Pehle -  Friends First","duration":28},{"id":1003654,"name":"Nanpan","duration":29},{"id":963693,"name":"Friendship Song","duration":29},{"id":183841,"name":"Anmulle","duration":29},{"id":999464,"name":"Discord Fim 1","duration":8},{"id":1322891,"name":"Agan Lake Ishq De By","duration":29},{"id":869050,"name":"Equestria In Grey","duration":29},{"id":886536,"name":"Zzzzzzz","duration":7},{"id":896178,"name":"Raritys Gala","duration":24},{"id":985087,"name":"Make Sense","duration":4},{"id":811918,"name":"Friendship Tone","duration":21},{"id":204672,"name":"Winter Wrap Up","duration":21},{"id":347167,"name":"Worst Friend","duration":11},{"id":883472,"name":"Nanban Heart Feels","duration":29},{"id":1232499,"name":"Bondhu","duration":14},{"id":138814,"name":"Mk3 Friendship","duration":2},{"id":1265170,"name":"Dum Laga Ultimate Rt","duration":19},{"id":881371,"name":"Friendship","duration":29},{"id":1363263,"name":"Title","duration":12},{"id":43155,"name":"Body Talk","duration":30},{"id":777913,"name":"This  Girl","duration":29},{"id":980470,"name":"Renault Scala Ad","duration":29},{"id":1030004,"name":"MLP - Baby Applejack","duration":3},{"id":962378,"name":"Tera Mera Airtel","duration":26},{"id":796417,"name":"Friendship","duration":12},{"id":854609,"name":"Into The Gala","duration":21},{"id":188247,"name":"Pinkie Woo","duration":29},{"id":858922,"name":"Shes A Pony","duration":29}]}